{
	"textures": [
		{
			"image": "data-0.jpg",
			"format": "RGB888",
			"size": {
				"w": 670,
				"h": 877
			},
			"scale": 1,
			"frames": [
				{
					"filename": "0051.png",
					"rotated": false,
					"trimmed": false,
					"sourceSize": {
						"w": 670,
						"h": 877
					},
					"spriteSourceSize": {
						"x": 0,
						"y": 0,
						"w": 670,
						"h": 877
					},
					"frame": {
						"x": 0,
						"y": 0,
						"w": 670,
						"h": 877
					}
				}
			]
		},
		{
			"image": "data-1.jpg",
			"format": "RGB888",
			"size": {
				"w": 670,
				"h": 877
			},
			"scale": 1,
			"frames": [
				{
					"filename": "0052.png",
					"rotated": false,
					"trimmed": false,
					"sourceSize": {
						"w": 670,
						"h": 877
					},
					"spriteSourceSize": {
						"x": 0,
						"y": 0,
						"w": 670,
						"h": 877
					},
					"frame": {
						"x": 0,
						"y": 0,
						"w": 670,
						"h": 877
					}
				}
			]
		},
		{
			"image": "data-2.jpg",
			"format": "RGB888",
			"size": {
				"w": 670,
				"h": 877
			},
			"scale": 1,
			"frames": [
				{
					"filename": "0053.png",
					"rotated": false,
					"trimmed": false,
					"sourceSize": {
						"w": 670,
						"h": 877
					},
					"spriteSourceSize": {
						"x": 0,
						"y": 0,
						"w": 670,
						"h": 877
					},
					"frame": {
						"x": 0,
						"y": 0,
						"w": 670,
						"h": 877
					}
				}
			]
		},
		{
			"image": "data-3.jpg",
			"format": "RGB888",
			"size": {
				"w": 670,
				"h": 877
			},
			"scale": 1,
			"frames": [
				{
					"filename": "0054.png",
					"rotated": false,
					"trimmed": false,
					"sourceSize": {
						"w": 670,
						"h": 877
					},
					"spriteSourceSize": {
						"x": 0,
						"y": 0,
						"w": 670,
						"h": 877
					},
					"frame": {
						"x": 0,
						"y": 0,
						"w": 670,
						"h": 877
					}
				}
			]
		},
		{
			"image": "data-4.jpg",
			"format": "RGB888",
			"size": {
				"w": 670,
				"h": 877
			},
			"scale": 1,
			"frames": [
				{
					"filename": "0055.png",
					"rotated": false,
					"trimmed": false,
					"sourceSize": {
						"w": 670,
						"h": 877
					},
					"spriteSourceSize": {
						"x": 0,
						"y": 0,
						"w": 670,
						"h": 877
					},
					"frame": {
						"x": 0,
						"y": 0,
						"w": 670,
						"h": 877
					}
				}
			]
		},
		{
			"image": "data-5.jpg",
			"format": "RGB888",
			"size": {
				"w": 670,
				"h": 877
			},
			"scale": 1,
			"frames": [
				{
					"filename": "0056.png",
					"rotated": false,
					"trimmed": false,
					"sourceSize": {
						"w": 670,
						"h": 877
					},
					"spriteSourceSize": {
						"x": 0,
						"y": 0,
						"w": 670,
						"h": 877
					},
					"frame": {
						"x": 0,
						"y": 0,
						"w": 670,
						"h": 877
					}
				}
			]
		},
		{
			"image": "data-6.jpg",
			"format": "RGB888",
			"size": {
				"w": 670,
				"h": 877
			},
			"scale": 1,
			"frames": [
				{
					"filename": "0057.png",
					"rotated": false,
					"trimmed": false,
					"sourceSize": {
						"w": 670,
						"h": 877
					},
					"spriteSourceSize": {
						"x": 0,
						"y": 0,
						"w": 670,
						"h": 877
					},
					"frame": {
						"x": 0,
						"y": 0,
						"w": 670,
						"h": 877
					}
				}
			]
		},
		{
			"image": "data-7.jpg",
			"format": "RGB888",
			"size": {
				"w": 670,
				"h": 877
			},
			"scale": 1,
			"frames": [
				{
					"filename": "0058.png",
					"rotated": false,
					"trimmed": false,
					"sourceSize": {
						"w": 670,
						"h": 877
					},
					"spriteSourceSize": {
						"x": 0,
						"y": 0,
						"w": 670,
						"h": 877
					},
					"frame": {
						"x": 0,
						"y": 0,
						"w": 670,
						"h": 877
					}
				}
			]
		},
		{
			"image": "data-8.jpg",
			"format": "RGB888",
			"size": {
				"w": 670,
				"h": 877
			},
			"scale": 1,
			"frames": [
				{
					"filename": "0059.png",
					"rotated": false,
					"trimmed": false,
					"sourceSize": {
						"w": 670,
						"h": 877
					},
					"spriteSourceSize": {
						"x": 0,
						"y": 0,
						"w": 670,
						"h": 877
					},
					"frame": {
						"x": 0,
						"y": 0,
						"w": 670,
						"h": 877
					}
				}
			]
		},
		{
			"image": "data-9.jpg",
			"format": "RGB888",
			"size": {
				"w": 670,
				"h": 877
			},
			"scale": 1,
			"frames": [
				{
					"filename": "0060.png",
					"rotated": false,
					"trimmed": false,
					"sourceSize": {
						"w": 670,
						"h": 877
					},
					"spriteSourceSize": {
						"x": 0,
						"y": 0,
						"w": 670,
						"h": 877
					},
					"frame": {
						"x": 0,
						"y": 0,
						"w": 670,
						"h": 877
					}
				}
			]
		},
		{
			"image": "data-10.jpg",
			"format": "RGB888",
			"size": {
				"w": 670,
				"h": 877
			},
			"scale": 1,
			"frames": [
				{
					"filename": "0061.png",
					"rotated": false,
					"trimmed": false,
					"sourceSize": {
						"w": 670,
						"h": 877
					},
					"spriteSourceSize": {
						"x": 0,
						"y": 0,
						"w": 670,
						"h": 877
					},
					"frame": {
						"x": 0,
						"y": 0,
						"w": 670,
						"h": 877
					}
				}
			]
		},
		{
			"image": "data-11.jpg",
			"format": "RGB888",
			"size": {
				"w": 670,
				"h": 877
			},
			"scale": 1,
			"frames": [
				{
					"filename": "0062.png",
					"rotated": false,
					"trimmed": false,
					"sourceSize": {
						"w": 670,
						"h": 877
					},
					"spriteSourceSize": {
						"x": 0,
						"y": 0,
						"w": 670,
						"h": 877
					},
					"frame": {
						"x": 0,
						"y": 0,
						"w": 670,
						"h": 877
					}
				}
			]
		},
		{
			"image": "data-12.jpg",
			"format": "RGB888",
			"size": {
				"w": 670,
				"h": 877
			},
			"scale": 1,
			"frames": [
				{
					"filename": "0063.png",
					"rotated": false,
					"trimmed": false,
					"sourceSize": {
						"w": 670,
						"h": 877
					},
					"spriteSourceSize": {
						"x": 0,
						"y": 0,
						"w": 670,
						"h": 877
					},
					"frame": {
						"x": 0,
						"y": 0,
						"w": 670,
						"h": 877
					}
				}
			]
		},
		{
			"image": "data-13.jpg",
			"format": "RGB888",
			"size": {
				"w": 670,
				"h": 877
			},
			"scale": 1,
			"frames": [
				{
					"filename": "0064.png",
					"rotated": false,
					"trimmed": false,
					"sourceSize": {
						"w": 670,
						"h": 877
					},
					"spriteSourceSize": {
						"x": 0,
						"y": 0,
						"w": 670,
						"h": 877
					},
					"frame": {
						"x": 0,
						"y": 0,
						"w": 670,
						"h": 877
					}
				}
			]
		},
		{
			"image": "data-14.jpg",
			"format": "RGB888",
			"size": {
				"w": 670,
				"h": 877
			},
			"scale": 1,
			"frames": [
				{
					"filename": "0065.png",
					"rotated": false,
					"trimmed": false,
					"sourceSize": {
						"w": 670,
						"h": 877
					},
					"spriteSourceSize": {
						"x": 0,
						"y": 0,
						"w": 670,
						"h": 877
					},
					"frame": {
						"x": 0,
						"y": 0,
						"w": 670,
						"h": 877
					}
				}
			]
		},
		{
			"image": "data-15.jpg",
			"format": "RGB888",
			"size": {
				"w": 670,
				"h": 877
			},
			"scale": 1,
			"frames": [
				{
					"filename": "0066.png",
					"rotated": false,
					"trimmed": false,
					"sourceSize": {
						"w": 670,
						"h": 877
					},
					"spriteSourceSize": {
						"x": 0,
						"y": 0,
						"w": 670,
						"h": 877
					},
					"frame": {
						"x": 0,
						"y": 0,
						"w": 670,
						"h": 877
					}
				}
			]
		},
		{
			"image": "data-16.jpg",
			"format": "RGB888",
			"size": {
				"w": 670,
				"h": 877
			},
			"scale": 1,
			"frames": [
				{
					"filename": "0067.png",
					"rotated": false,
					"trimmed": false,
					"sourceSize": {
						"w": 670,
						"h": 877
					},
					"spriteSourceSize": {
						"x": 0,
						"y": 0,
						"w": 670,
						"h": 877
					},
					"frame": {
						"x": 0,
						"y": 0,
						"w": 670,
						"h": 877
					}
				}
			]
		},
		{
			"image": "data-17.jpg",
			"format": "RGB888",
			"size": {
				"w": 670,
				"h": 877
			},
			"scale": 1,
			"frames": [
				{
					"filename": "0068.png",
					"rotated": false,
					"trimmed": false,
					"sourceSize": {
						"w": 670,
						"h": 877
					},
					"spriteSourceSize": {
						"x": 0,
						"y": 0,
						"w": 670,
						"h": 877
					},
					"frame": {
						"x": 0,
						"y": 0,
						"w": 670,
						"h": 877
					}
				}
			]
		},
		{
			"image": "data-18.jpg",
			"format": "RGB888",
			"size": {
				"w": 670,
				"h": 877
			},
			"scale": 1,
			"frames": [
				{
					"filename": "0069.png",
					"rotated": false,
					"trimmed": false,
					"sourceSize": {
						"w": 670,
						"h": 877
					},
					"spriteSourceSize": {
						"x": 0,
						"y": 0,
						"w": 670,
						"h": 877
					},
					"frame": {
						"x": 0,
						"y": 0,
						"w": 670,
						"h": 877
					}
				}
			]
		},
		{
			"image": "data-19.jpg",
			"format": "RGB888",
			"size": {
				"w": 670,
				"h": 877
			},
			"scale": 1,
			"frames": [
				{
					"filename": "0070.png",
					"rotated": false,
					"trimmed": false,
					"sourceSize": {
						"w": 670,
						"h": 877
					},
					"spriteSourceSize": {
						"x": 0,
						"y": 0,
						"w": 670,
						"h": 877
					},
					"frame": {
						"x": 0,
						"y": 0,
						"w": 670,
						"h": 877
					}
				}
			]
		}
	],
	"meta": {
		"app": "https://www.codeandweb.com/texturepacker",
		"version": "3.0",
		"smartupdate": "$TexturePacker:SmartUpdate:31f46c9d00ec9196e0787c27c3d938c7:0116ba7ade8ceaae59e7bf63ba5671ef:f0db1b315679227457e46194b4b8ae44$"
	}
}
