{
	"textures": [
		{
			"image": "promo-0.jpg",
			"format": "RGB888",
			"size": {
				"w": 585,
				"h": 752
			},
			"scale": 1,
			"frames": [
				{
					"filename": "0001.png",
					"rotated": false,
					"trimmed": false,
					"sourceSize": {
						"w": 583,
						"h": 750
					},
					"spriteSourceSize": {
						"x": 0,
						"y": 0,
						"w": 583,
						"h": 750
					},
					"frame": {
						"x": 1,
						"y": 1,
						"w": 583,
						"h": 750
					}
				}
			]
		},
		{
			"image": "promo-1.jpg",
			"format": "RGB888",
			"size": {
				"w": 585,
				"h": 752
			},
			"scale": 1,
			"frames": [
				{
					"filename": "0002.png",
					"rotated": false,
					"trimmed": false,
					"sourceSize": {
						"w": 583,
						"h": 750
					},
					"spriteSourceSize": {
						"x": 0,
						"y": 0,
						"w": 583,
						"h": 750
					},
					"frame": {
						"x": 1,
						"y": 1,
						"w": 583,
						"h": 750
					}
				}
			]
		},
		{
			"image": "promo-2.jpg",
			"format": "RGB888",
			"size": {
				"w": 585,
				"h": 752
			},
			"scale": 1,
			"frames": [
				{
					"filename": "0003.png",
					"rotated": false,
					"trimmed": false,
					"sourceSize": {
						"w": 583,
						"h": 750
					},
					"spriteSourceSize": {
						"x": 0,
						"y": 0,
						"w": 583,
						"h": 750
					},
					"frame": {
						"x": 1,
						"y": 1,
						"w": 583,
						"h": 750
					}
				}
			]
		},
		{
			"image": "promo-3.jpg",
			"format": "RGB888",
			"size": {
				"w": 585,
				"h": 752
			},
			"scale": 1,
			"frames": [
				{
					"filename": "0004.png",
					"rotated": false,
					"trimmed": false,
					"sourceSize": {
						"w": 583,
						"h": 750
					},
					"spriteSourceSize": {
						"x": 0,
						"y": 0,
						"w": 583,
						"h": 750
					},
					"frame": {
						"x": 1,
						"y": 1,
						"w": 583,
						"h": 750
					}
				}
			]
		},
		{
			"image": "promo-4.jpg",
			"format": "RGB888",
			"size": {
				"w": 585,
				"h": 752
			},
			"scale": 1,
			"frames": [
				{
					"filename": "0005.png",
					"rotated": false,
					"trimmed": false,
					"sourceSize": {
						"w": 583,
						"h": 750
					},
					"spriteSourceSize": {
						"x": 0,
						"y": 0,
						"w": 583,
						"h": 750
					},
					"frame": {
						"x": 1,
						"y": 1,
						"w": 583,
						"h": 750
					}
				}
			]
		},
		{
			"image": "promo-5.jpg",
			"format": "RGB888",
			"size": {
				"w": 585,
				"h": 752
			},
			"scale": 1,
			"frames": [
				{
					"filename": "0006.png",
					"rotated": false,
					"trimmed": false,
					"sourceSize": {
						"w": 583,
						"h": 750
					},
					"spriteSourceSize": {
						"x": 0,
						"y": 0,
						"w": 583,
						"h": 750
					},
					"frame": {
						"x": 1,
						"y": 1,
						"w": 583,
						"h": 750
					}
				}
			]
		},
		{
			"image": "promo-6.jpg",
			"format": "RGB888",
			"size": {
				"w": 585,
				"h": 752
			},
			"scale": 1,
			"frames": [
				{
					"filename": "0007.png",
					"rotated": false,
					"trimmed": false,
					"sourceSize": {
						"w": 583,
						"h": 750
					},
					"spriteSourceSize": {
						"x": 0,
						"y": 0,
						"w": 583,
						"h": 750
					},
					"frame": {
						"x": 1,
						"y": 1,
						"w": 583,
						"h": 750
					}
				}
			]
		},
		{
			"image": "promo-7.jpg",
			"format": "RGB888",
			"size": {
				"w": 585,
				"h": 752
			},
			"scale": 1,
			"frames": [
				{
					"filename": "0008.png",
					"rotated": false,
					"trimmed": false,
					"sourceSize": {
						"w": 583,
						"h": 750
					},
					"spriteSourceSize": {
						"x": 0,
						"y": 0,
						"w": 583,
						"h": 750
					},
					"frame": {
						"x": 1,
						"y": 1,
						"w": 583,
						"h": 750
					}
				}
			]
		},
		{
			"image": "promo-8.jpg",
			"format": "RGB888",
			"size": {
				"w": 585,
				"h": 752
			},
			"scale": 1,
			"frames": [
				{
					"filename": "0009.png",
					"rotated": false,
					"trimmed": false,
					"sourceSize": {
						"w": 583,
						"h": 750
					},
					"spriteSourceSize": {
						"x": 0,
						"y": 0,
						"w": 583,
						"h": 750
					},
					"frame": {
						"x": 1,
						"y": 1,
						"w": 583,
						"h": 750
					}
				}
			]
		},
		{
			"image": "promo-9.jpg",
			"format": "RGB888",
			"size": {
				"w": 585,
				"h": 752
			},
			"scale": 1,
			"frames": [
				{
					"filename": "0010.png",
					"rotated": false,
					"trimmed": false,
					"sourceSize": {
						"w": 583,
						"h": 750
					},
					"spriteSourceSize": {
						"x": 0,
						"y": 0,
						"w": 583,
						"h": 750
					},
					"frame": {
						"x": 1,
						"y": 1,
						"w": 583,
						"h": 750
					}
				}
			]
		},
		{
			"image": "promo-10.jpg",
			"format": "RGB888",
			"size": {
				"w": 585,
				"h": 752
			},
			"scale": 1,
			"frames": [
				{
					"filename": "0011.png",
					"rotated": false,
					"trimmed": false,
					"sourceSize": {
						"w": 583,
						"h": 750
					},
					"spriteSourceSize": {
						"x": 0,
						"y": 0,
						"w": 583,
						"h": 750
					},
					"frame": {
						"x": 1,
						"y": 1,
						"w": 583,
						"h": 750
					}
				}
			]
		},
		{
			"image": "promo-11.jpg",
			"format": "RGB888",
			"size": {
				"w": 585,
				"h": 752
			},
			"scale": 1,
			"frames": [
				{
					"filename": "0012.png",
					"rotated": false,
					"trimmed": false,
					"sourceSize": {
						"w": 583,
						"h": 750
					},
					"spriteSourceSize": {
						"x": 0,
						"y": 0,
						"w": 583,
						"h": 750
					},
					"frame": {
						"x": 1,
						"y": 1,
						"w": 583,
						"h": 750
					}
				}
			]
		},
		{
			"image": "promo-12.jpg",
			"format": "RGB888",
			"size": {
				"w": 585,
				"h": 752
			},
			"scale": 1,
			"frames": [
				{
					"filename": "0013.png",
					"rotated": false,
					"trimmed": false,
					"sourceSize": {
						"w": 583,
						"h": 750
					},
					"spriteSourceSize": {
						"x": 0,
						"y": 0,
						"w": 583,
						"h": 750
					},
					"frame": {
						"x": 1,
						"y": 1,
						"w": 583,
						"h": 750
					}
				}
			]
		},
		{
			"image": "promo-13.jpg",
			"format": "RGB888",
			"size": {
				"w": 585,
				"h": 752
			},
			"scale": 1,
			"frames": [
				{
					"filename": "0014.png",
					"rotated": false,
					"trimmed": false,
					"sourceSize": {
						"w": 583,
						"h": 750
					},
					"spriteSourceSize": {
						"x": 0,
						"y": 0,
						"w": 583,
						"h": 750
					},
					"frame": {
						"x": 1,
						"y": 1,
						"w": 583,
						"h": 750
					}
				}
			]
		},
		{
			"image": "promo-14.jpg",
			"format": "RGB888",
			"size": {
				"w": 585,
				"h": 752
			},
			"scale": 1,
			"frames": [
				{
					"filename": "0015.png",
					"rotated": false,
					"trimmed": false,
					"sourceSize": {
						"w": 583,
						"h": 750
					},
					"spriteSourceSize": {
						"x": 0,
						"y": 0,
						"w": 583,
						"h": 750
					},
					"frame": {
						"x": 1,
						"y": 1,
						"w": 583,
						"h": 750
					}
				}
			]
		},
		{
			"image": "promo-15.jpg",
			"format": "RGB888",
			"size": {
				"w": 585,
				"h": 752
			},
			"scale": 1,
			"frames": [
				{
					"filename": "0016.png",
					"rotated": false,
					"trimmed": false,
					"sourceSize": {
						"w": 583,
						"h": 750
					},
					"spriteSourceSize": {
						"x": 0,
						"y": 0,
						"w": 583,
						"h": 750
					},
					"frame": {
						"x": 1,
						"y": 1,
						"w": 583,
						"h": 750
					}
				}
			]
		},
		{
			"image": "promo-16.jpg",
			"format": "RGB888",
			"size": {
				"w": 585,
				"h": 752
			},
			"scale": 1,
			"frames": [
				{
					"filename": "0017.png",
					"rotated": false,
					"trimmed": false,
					"sourceSize": {
						"w": 583,
						"h": 750
					},
					"spriteSourceSize": {
						"x": 0,
						"y": 0,
						"w": 583,
						"h": 750
					},
					"frame": {
						"x": 1,
						"y": 1,
						"w": 583,
						"h": 750
					}
				}
			]
		},
		{
			"image": "promo-17.jpg",
			"format": "RGB888",
			"size": {
				"w": 585,
				"h": 752
			},
			"scale": 1,
			"frames": [
				{
					"filename": "0018.png",
					"rotated": false,
					"trimmed": false,
					"sourceSize": {
						"w": 583,
						"h": 750
					},
					"spriteSourceSize": {
						"x": 0,
						"y": 0,
						"w": 583,
						"h": 750
					},
					"frame": {
						"x": 1,
						"y": 1,
						"w": 583,
						"h": 750
					}
				}
			]
		},
		{
			"image": "promo-18.jpg",
			"format": "RGB888",
			"size": {
				"w": 585,
				"h": 752
			},
			"scale": 1,
			"frames": [
				{
					"filename": "0019.png",
					"rotated": false,
					"trimmed": false,
					"sourceSize": {
						"w": 583,
						"h": 750
					},
					"spriteSourceSize": {
						"x": 0,
						"y": 0,
						"w": 583,
						"h": 750
					},
					"frame": {
						"x": 1,
						"y": 1,
						"w": 583,
						"h": 750
					}
				}
			]
		},
		{
			"image": "promo-19.jpg",
			"format": "RGB888",
			"size": {
				"w": 585,
				"h": 752
			},
			"scale": 1,
			"frames": [
				{
					"filename": "0020.png",
					"rotated": false,
					"trimmed": false,
					"sourceSize": {
						"w": 583,
						"h": 750
					},
					"spriteSourceSize": {
						"x": 0,
						"y": 0,
						"w": 583,
						"h": 750
					},
					"frame": {
						"x": 1,
						"y": 1,
						"w": 583,
						"h": 750
					}
				}
			]
		},
		{
			"image": "promo-20.jpg",
			"format": "RGB888",
			"size": {
				"w": 585,
				"h": 752
			},
			"scale": 1,
			"frames": [
				{
					"filename": "0021.png",
					"rotated": false,
					"trimmed": false,
					"sourceSize": {
						"w": 583,
						"h": 750
					},
					"spriteSourceSize": {
						"x": 0,
						"y": 0,
						"w": 583,
						"h": 750
					},
					"frame": {
						"x": 1,
						"y": 1,
						"w": 583,
						"h": 750
					}
				}
			]
		},
		{
			"image": "promo-21.jpg",
			"format": "RGB888",
			"size": {
				"w": 585,
				"h": 752
			},
			"scale": 1,
			"frames": [
				{
					"filename": "0022.png",
					"rotated": false,
					"trimmed": false,
					"sourceSize": {
						"w": 583,
						"h": 750
					},
					"spriteSourceSize": {
						"x": 0,
						"y": 0,
						"w": 583,
						"h": 750
					},
					"frame": {
						"x": 1,
						"y": 1,
						"w": 583,
						"h": 750
					}
				}
			]
		},
		{
			"image": "promo-22.jpg",
			"format": "RGB888",
			"size": {
				"w": 585,
				"h": 752
			},
			"scale": 1,
			"frames": [
				{
					"filename": "0023.png",
					"rotated": false,
					"trimmed": false,
					"sourceSize": {
						"w": 583,
						"h": 750
					},
					"spriteSourceSize": {
						"x": 0,
						"y": 0,
						"w": 583,
						"h": 750
					},
					"frame": {
						"x": 1,
						"y": 1,
						"w": 583,
						"h": 750
					}
				}
			]
		},
		{
			"image": "promo-23.jpg",
			"format": "RGB888",
			"size": {
				"w": 585,
				"h": 752
			},
			"scale": 1,
			"frames": [
				{
					"filename": "0024.png",
					"rotated": false,
					"trimmed": false,
					"sourceSize": {
						"w": 583,
						"h": 750
					},
					"spriteSourceSize": {
						"x": 0,
						"y": 0,
						"w": 583,
						"h": 750
					},
					"frame": {
						"x": 1,
						"y": 1,
						"w": 583,
						"h": 750
					}
				}
			]
		},
		{
			"image": "promo-24.jpg",
			"format": "RGB888",
			"size": {
				"w": 585,
				"h": 752
			},
			"scale": 1,
			"frames": [
				{
					"filename": "0025.png",
					"rotated": false,
					"trimmed": false,
					"sourceSize": {
						"w": 583,
						"h": 750
					},
					"spriteSourceSize": {
						"x": 0,
						"y": 0,
						"w": 583,
						"h": 750
					},
					"frame": {
						"x": 1,
						"y": 1,
						"w": 583,
						"h": 750
					}
				}
			]
		}
	],
	"meta": {
		"app": "https://www.codeandweb.com/texturepacker",
		"version": "3.0",
		"smartupdate": "$TexturePacker:SmartUpdate:c1e6e4b19a072d670ca21a721926621f:559f26dff71f6ae4b13b0eb89a3615c7:63fc533f092fc1fb32107804a201441d$"
	}
}
