{
	"textures": [
		{
			"image": "data-0.jpg",
			"format": "RGB888",
			"size": {
				"w": 670,
				"h": 877
			},
			"scale": 1,
			"frames": [
				{
					"filename": "0126.png",
					"rotated": false,
					"trimmed": false,
					"sourceSize": {
						"w": 670,
						"h": 877
					},
					"spriteSourceSize": {
						"x": 0,
						"y": 0,
						"w": 670,
						"h": 877
					},
					"frame": {
						"x": 0,
						"y": 0,
						"w": 670,
						"h": 877
					}
				}
			]
		}
	],
	"meta": {
		"app": "https://www.codeandweb.com/texturepacker",
		"version": "3.0",
		"smartupdate": "$TexturePacker:SmartUpdate:9664f55ffc9a7290270777b5964a60cb:2064dad1b1a1fee7b750ab529c86f0c4:df2790415a40627183c6cfa798ecbbe5$"
	}
}
