{
	"textures": [
		{
			"image": "final-0.jpg",
			"format": "RGB888",
			"size": {
				"w": 772,
				"h": 862
			},
			"scale": 1,
			"frames": [
				{
					"filename": "0381.png",
					"rotated": false,
					"trimmed": false,
					"sourceSize": {
						"w": 770,
						"h": 860
					},
					"spriteSourceSize": {
						"x": 0,
						"y": 0,
						"w": 770,
						"h": 860
					},
					"frame": {
						"x": 1,
						"y": 1,
						"w": 770,
						"h": 860
					}
				}
			]
		},
		{
			"image": "final-1.jpg",
			"format": "RGB888",
			"size": {
				"w": 772,
				"h": 862
			},
			"scale": 1,
			"frames": [
				{
					"filename": "0382.png",
					"rotated": false,
					"trimmed": false,
					"sourceSize": {
						"w": 770,
						"h": 860
					},
					"spriteSourceSize": {
						"x": 0,
						"y": 0,
						"w": 770,
						"h": 860
					},
					"frame": {
						"x": 1,
						"y": 1,
						"w": 770,
						"h": 860
					}
				}
			]
		},
		{
			"image": "final-2.jpg",
			"format": "RGB888",
			"size": {
				"w": 772,
				"h": 862
			},
			"scale": 1,
			"frames": [
				{
					"filename": "0383.png",
					"rotated": false,
					"trimmed": false,
					"sourceSize": {
						"w": 770,
						"h": 860
					},
					"spriteSourceSize": {
						"x": 0,
						"y": 0,
						"w": 770,
						"h": 860
					},
					"frame": {
						"x": 1,
						"y": 1,
						"w": 770,
						"h": 860
					}
				}
			]
		},
		{
			"image": "final-3.jpg",
			"format": "RGB888",
			"size": {
				"w": 772,
				"h": 862
			},
			"scale": 1,
			"frames": [
				{
					"filename": "0384.png",
					"rotated": false,
					"trimmed": false,
					"sourceSize": {
						"w": 770,
						"h": 860
					},
					"spriteSourceSize": {
						"x": 0,
						"y": 0,
						"w": 770,
						"h": 860
					},
					"frame": {
						"x": 1,
						"y": 1,
						"w": 770,
						"h": 860
					}
				}
			]
		},
		{
			"image": "final-4.jpg",
			"format": "RGB888",
			"size": {
				"w": 772,
				"h": 862
			},
			"scale": 1,
			"frames": [
				{
					"filename": "0385.png",
					"rotated": false,
					"trimmed": false,
					"sourceSize": {
						"w": 770,
						"h": 860
					},
					"spriteSourceSize": {
						"x": 0,
						"y": 0,
						"w": 770,
						"h": 860
					},
					"frame": {
						"x": 1,
						"y": 1,
						"w": 770,
						"h": 860
					}
				}
			]
		},
		{
			"image": "final-5.jpg",
			"format": "RGB888",
			"size": {
				"w": 772,
				"h": 862
			},
			"scale": 1,
			"frames": [
				{
					"filename": "0386.png",
					"rotated": false,
					"trimmed": false,
					"sourceSize": {
						"w": 770,
						"h": 860
					},
					"spriteSourceSize": {
						"x": 0,
						"y": 0,
						"w": 770,
						"h": 860
					},
					"frame": {
						"x": 1,
						"y": 1,
						"w": 770,
						"h": 860
					}
				}
			]
		},
		{
			"image": "final-6.jpg",
			"format": "RGB888",
			"size": {
				"w": 772,
				"h": 862
			},
			"scale": 1,
			"frames": [
				{
					"filename": "0387.png",
					"rotated": false,
					"trimmed": false,
					"sourceSize": {
						"w": 770,
						"h": 860
					},
					"spriteSourceSize": {
						"x": 0,
						"y": 0,
						"w": 770,
						"h": 860
					},
					"frame": {
						"x": 1,
						"y": 1,
						"w": 770,
						"h": 860
					}
				}
			]
		},
		{
			"image": "final-7.jpg",
			"format": "RGB888",
			"size": {
				"w": 772,
				"h": 862
			},
			"scale": 1,
			"frames": [
				{
					"filename": "0388.png",
					"rotated": false,
					"trimmed": false,
					"sourceSize": {
						"w": 770,
						"h": 860
					},
					"spriteSourceSize": {
						"x": 0,
						"y": 0,
						"w": 770,
						"h": 860
					},
					"frame": {
						"x": 1,
						"y": 1,
						"w": 770,
						"h": 860
					}
				}
			]
		},
		{
			"image": "final-8.jpg",
			"format": "RGB888",
			"size": {
				"w": 772,
				"h": 862
			},
			"scale": 1,
			"frames": [
				{
					"filename": "0389.png",
					"rotated": false,
					"trimmed": false,
					"sourceSize": {
						"w": 770,
						"h": 860
					},
					"spriteSourceSize": {
						"x": 0,
						"y": 0,
						"w": 770,
						"h": 860
					},
					"frame": {
						"x": 1,
						"y": 1,
						"w": 770,
						"h": 860
					}
				}
			]
		},
		{
			"image": "final-9.jpg",
			"format": "RGB888",
			"size": {
				"w": 772,
				"h": 862
			},
			"scale": 1,
			"frames": [
				{
					"filename": "0390.png",
					"rotated": false,
					"trimmed": false,
					"sourceSize": {
						"w": 770,
						"h": 860
					},
					"spriteSourceSize": {
						"x": 0,
						"y": 0,
						"w": 770,
						"h": 860
					},
					"frame": {
						"x": 1,
						"y": 1,
						"w": 770,
						"h": 860
					}
				}
			]
		},
		{
			"image": "final-10.jpg",
			"format": "RGB888",
			"size": {
				"w": 772,
				"h": 862
			},
			"scale": 1,
			"frames": [
				{
					"filename": "0391.png",
					"rotated": false,
					"trimmed": false,
					"sourceSize": {
						"w": 770,
						"h": 860
					},
					"spriteSourceSize": {
						"x": 0,
						"y": 0,
						"w": 770,
						"h": 860
					},
					"frame": {
						"x": 1,
						"y": 1,
						"w": 770,
						"h": 860
					}
				}
			]
		},
		{
			"image": "final-11.jpg",
			"format": "RGB888",
			"size": {
				"w": 772,
				"h": 862
			},
			"scale": 1,
			"frames": [
				{
					"filename": "0392.png",
					"rotated": false,
					"trimmed": false,
					"sourceSize": {
						"w": 770,
						"h": 860
					},
					"spriteSourceSize": {
						"x": 0,
						"y": 0,
						"w": 770,
						"h": 860
					},
					"frame": {
						"x": 1,
						"y": 1,
						"w": 770,
						"h": 860
					}
				}
			]
		},
		{
			"image": "final-12.jpg",
			"format": "RGB888",
			"size": {
				"w": 772,
				"h": 862
			},
			"scale": 1,
			"frames": [
				{
					"filename": "0393.png",
					"rotated": false,
					"trimmed": false,
					"sourceSize": {
						"w": 770,
						"h": 860
					},
					"spriteSourceSize": {
						"x": 0,
						"y": 0,
						"w": 770,
						"h": 860
					},
					"frame": {
						"x": 1,
						"y": 1,
						"w": 770,
						"h": 860
					}
				}
			]
		},
		{
			"image": "final-13.jpg",
			"format": "RGB888",
			"size": {
				"w": 772,
				"h": 862
			},
			"scale": 1,
			"frames": [
				{
					"filename": "0394.png",
					"rotated": false,
					"trimmed": false,
					"sourceSize": {
						"w": 770,
						"h": 860
					},
					"spriteSourceSize": {
						"x": 0,
						"y": 0,
						"w": 770,
						"h": 860
					},
					"frame": {
						"x": 1,
						"y": 1,
						"w": 770,
						"h": 860
					}
				}
			]
		},
		{
			"image": "final-14.jpg",
			"format": "RGB888",
			"size": {
				"w": 772,
				"h": 862
			},
			"scale": 1,
			"frames": [
				{
					"filename": "0395.png",
					"rotated": false,
					"trimmed": false,
					"sourceSize": {
						"w": 770,
						"h": 860
					},
					"spriteSourceSize": {
						"x": 0,
						"y": 0,
						"w": 770,
						"h": 860
					},
					"frame": {
						"x": 1,
						"y": 1,
						"w": 770,
						"h": 860
					}
				}
			]
		},
		{
			"image": "final-15.jpg",
			"format": "RGB888",
			"size": {
				"w": 772,
				"h": 862
			},
			"scale": 1,
			"frames": [
				{
					"filename": "0396.png",
					"rotated": false,
					"trimmed": false,
					"sourceSize": {
						"w": 770,
						"h": 860
					},
					"spriteSourceSize": {
						"x": 0,
						"y": 0,
						"w": 770,
						"h": 860
					},
					"frame": {
						"x": 1,
						"y": 1,
						"w": 770,
						"h": 860
					}
				}
			]
		},
		{
			"image": "final-16.jpg",
			"format": "RGB888",
			"size": {
				"w": 772,
				"h": 862
			},
			"scale": 1,
			"frames": [
				{
					"filename": "0397.png",
					"rotated": false,
					"trimmed": false,
					"sourceSize": {
						"w": 770,
						"h": 860
					},
					"spriteSourceSize": {
						"x": 0,
						"y": 0,
						"w": 770,
						"h": 860
					},
					"frame": {
						"x": 1,
						"y": 1,
						"w": 770,
						"h": 860
					}
				}
			]
		},
		{
			"image": "final-17.jpg",
			"format": "RGB888",
			"size": {
				"w": 772,
				"h": 862
			},
			"scale": 1,
			"frames": [
				{
					"filename": "0398.png",
					"rotated": false,
					"trimmed": false,
					"sourceSize": {
						"w": 770,
						"h": 860
					},
					"spriteSourceSize": {
						"x": 0,
						"y": 0,
						"w": 770,
						"h": 860
					},
					"frame": {
						"x": 1,
						"y": 1,
						"w": 770,
						"h": 860
					}
				}
			]
		},
		{
			"image": "final-18.jpg",
			"format": "RGB888",
			"size": {
				"w": 772,
				"h": 862
			},
			"scale": 1,
			"frames": [
				{
					"filename": "0399.png",
					"rotated": false,
					"trimmed": false,
					"sourceSize": {
						"w": 770,
						"h": 860
					},
					"spriteSourceSize": {
						"x": 0,
						"y": 0,
						"w": 770,
						"h": 860
					},
					"frame": {
						"x": 1,
						"y": 1,
						"w": 770,
						"h": 860
					}
				}
			]
		},
		{
			"image": "final-19.jpg",
			"format": "RGB888",
			"size": {
				"w": 772,
				"h": 862
			},
			"scale": 1,
			"frames": [
				{
					"filename": "0400.png",
					"rotated": false,
					"trimmed": false,
					"sourceSize": {
						"w": 770,
						"h": 860
					},
					"spriteSourceSize": {
						"x": 0,
						"y": 0,
						"w": 770,
						"h": 860
					},
					"frame": {
						"x": 1,
						"y": 1,
						"w": 770,
						"h": 860
					}
				}
			]
		},
		{
			"image": "final-20.jpg",
			"format": "RGB888",
			"size": {
				"w": 772,
				"h": 862
			},
			"scale": 1,
			"frames": [
				{
					"filename": "0401.png",
					"rotated": false,
					"trimmed": false,
					"sourceSize": {
						"w": 770,
						"h": 860
					},
					"spriteSourceSize": {
						"x": 0,
						"y": 0,
						"w": 770,
						"h": 860
					},
					"frame": {
						"x": 1,
						"y": 1,
						"w": 770,
						"h": 860
					}
				}
			]
		},
		{
			"image": "final-21.jpg",
			"format": "RGB888",
			"size": {
				"w": 772,
				"h": 862
			},
			"scale": 1,
			"frames": [
				{
					"filename": "0402.png",
					"rotated": false,
					"trimmed": false,
					"sourceSize": {
						"w": 770,
						"h": 860
					},
					"spriteSourceSize": {
						"x": 0,
						"y": 0,
						"w": 770,
						"h": 860
					},
					"frame": {
						"x": 1,
						"y": 1,
						"w": 770,
						"h": 860
					}
				}
			]
		},
		{
			"image": "final-22.jpg",
			"format": "RGB888",
			"size": {
				"w": 772,
				"h": 862
			},
			"scale": 1,
			"frames": [
				{
					"filename": "0403.png",
					"rotated": false,
					"trimmed": false,
					"sourceSize": {
						"w": 770,
						"h": 860
					},
					"spriteSourceSize": {
						"x": 0,
						"y": 0,
						"w": 770,
						"h": 860
					},
					"frame": {
						"x": 1,
						"y": 1,
						"w": 770,
						"h": 860
					}
				}
			]
		},
		{
			"image": "final-23.jpg",
			"format": "RGB888",
			"size": {
				"w": 772,
				"h": 862
			},
			"scale": 1,
			"frames": [
				{
					"filename": "0404.png",
					"rotated": false,
					"trimmed": false,
					"sourceSize": {
						"w": 770,
						"h": 860
					},
					"spriteSourceSize": {
						"x": 0,
						"y": 0,
						"w": 770,
						"h": 860
					},
					"frame": {
						"x": 1,
						"y": 1,
						"w": 770,
						"h": 860
					}
				}
			]
		},
		{
			"image": "final-24.jpg",
			"format": "RGB888",
			"size": {
				"w": 772,
				"h": 862
			},
			"scale": 1,
			"frames": [
				{
					"filename": "0405.png",
					"rotated": false,
					"trimmed": false,
					"sourceSize": {
						"w": 770,
						"h": 860
					},
					"spriteSourceSize": {
						"x": 0,
						"y": 0,
						"w": 770,
						"h": 860
					},
					"frame": {
						"x": 1,
						"y": 1,
						"w": 770,
						"h": 860
					}
				}
			]
		},
		{
			"image": "final-25.jpg",
			"format": "RGB888",
			"size": {
				"w": 772,
				"h": 862
			},
			"scale": 1,
			"frames": [
				{
					"filename": "0406.png",
					"rotated": false,
					"trimmed": false,
					"sourceSize": {
						"w": 770,
						"h": 860
					},
					"spriteSourceSize": {
						"x": 0,
						"y": 0,
						"w": 770,
						"h": 860
					},
					"frame": {
						"x": 1,
						"y": 1,
						"w": 770,
						"h": 860
					}
				}
			]
		},
		{
			"image": "final-26.jpg",
			"format": "RGB888",
			"size": {
				"w": 772,
				"h": 862
			},
			"scale": 1,
			"frames": [
				{
					"filename": "0407.png",
					"rotated": false,
					"trimmed": false,
					"sourceSize": {
						"w": 770,
						"h": 860
					},
					"spriteSourceSize": {
						"x": 0,
						"y": 0,
						"w": 770,
						"h": 860
					},
					"frame": {
						"x": 1,
						"y": 1,
						"w": 770,
						"h": 860
					}
				}
			]
		},
		{
			"image": "final-27.jpg",
			"format": "RGB888",
			"size": {
				"w": 772,
				"h": 862
			},
			"scale": 1,
			"frames": [
				{
					"filename": "0408.png",
					"rotated": false,
					"trimmed": false,
					"sourceSize": {
						"w": 770,
						"h": 860
					},
					"spriteSourceSize": {
						"x": 0,
						"y": 0,
						"w": 770,
						"h": 860
					},
					"frame": {
						"x": 1,
						"y": 1,
						"w": 770,
						"h": 860
					}
				}
			]
		},
		{
			"image": "final-28.jpg",
			"format": "RGB888",
			"size": {
				"w": 772,
				"h": 862
			},
			"scale": 1,
			"frames": [
				{
					"filename": "0409.png",
					"rotated": false,
					"trimmed": false,
					"sourceSize": {
						"w": 770,
						"h": 860
					},
					"spriteSourceSize": {
						"x": 0,
						"y": 0,
						"w": 770,
						"h": 860
					},
					"frame": {
						"x": 1,
						"y": 1,
						"w": 770,
						"h": 860
					}
				}
			]
		},
		{
			"image": "final-29.jpg",
			"format": "RGB888",
			"size": {
				"w": 772,
				"h": 862
			},
			"scale": 1,
			"frames": [
				{
					"filename": "0410.png",
					"rotated": false,
					"trimmed": false,
					"sourceSize": {
						"w": 770,
						"h": 860
					},
					"spriteSourceSize": {
						"x": 0,
						"y": 0,
						"w": 770,
						"h": 860
					},
					"frame": {
						"x": 1,
						"y": 1,
						"w": 770,
						"h": 860
					}
				}
			]
		},
		{
			"image": "final-30.jpg",
			"format": "RGB888",
			"size": {
				"w": 772,
				"h": 862
			},
			"scale": 1,
			"frames": [
				{
					"filename": "0411.png",
					"rotated": false,
					"trimmed": false,
					"sourceSize": {
						"w": 770,
						"h": 860
					},
					"spriteSourceSize": {
						"x": 0,
						"y": 0,
						"w": 770,
						"h": 860
					},
					"frame": {
						"x": 1,
						"y": 1,
						"w": 770,
						"h": 860
					}
				}
			]
		}
	],
	"meta": {
		"app": "https://www.codeandweb.com/texturepacker",
		"version": "3.0",
		"smartupdate": "$TexturePacker:SmartUpdate:6307a08ba27a2f0cb37d10cc5c6b4251:448325fd7edd4df2c34b00cdbc8f8464:0db04862cbaa91bd1165fb6e2f7f3140$"
	}
}
