{
	"textures": [
		{
			"image": "furniture-0.jpg",
			"format": "RGB888",
			"size": {
				"w": 772,
				"h": 862
			},
			"scale": 1,
			"frames": [
				{
					"filename": "0248.png",
					"rotated": false,
					"trimmed": false,
					"sourceSize": {
						"w": 770,
						"h": 860
					},
					"spriteSourceSize": {
						"x": 0,
						"y": 0,
						"w": 770,
						"h": 860
					},
					"frame": {
						"x": 1,
						"y": 1,
						"w": 770,
						"h": 860
					}
				}
			]
		},
		{
			"image": "furniture-1.jpg",
			"format": "RGB888",
			"size": {
				"w": 772,
				"h": 862
			},
			"scale": 1,
			"frames": [
				{
					"filename": "0249.png",
					"rotated": false,
					"trimmed": false,
					"sourceSize": {
						"w": 770,
						"h": 860
					},
					"spriteSourceSize": {
						"x": 0,
						"y": 0,
						"w": 770,
						"h": 860
					},
					"frame": {
						"x": 1,
						"y": 1,
						"w": 770,
						"h": 860
					}
				}
			]
		},
		{
			"image": "furniture-2.jpg",
			"format": "RGB888",
			"size": {
				"w": 772,
				"h": 862
			},
			"scale": 1,
			"frames": [
				{
					"filename": "0250.png",
					"rotated": false,
					"trimmed": false,
					"sourceSize": {
						"w": 770,
						"h": 860
					},
					"spriteSourceSize": {
						"x": 0,
						"y": 0,
						"w": 770,
						"h": 860
					},
					"frame": {
						"x": 1,
						"y": 1,
						"w": 770,
						"h": 860
					}
				}
			]
		},
		{
			"image": "furniture-3.jpg",
			"format": "RGB888",
			"size": {
				"w": 772,
				"h": 862
			},
			"scale": 1,
			"frames": [
				{
					"filename": "0251.png",
					"rotated": false,
					"trimmed": false,
					"sourceSize": {
						"w": 770,
						"h": 860
					},
					"spriteSourceSize": {
						"x": 0,
						"y": 0,
						"w": 770,
						"h": 860
					},
					"frame": {
						"x": 1,
						"y": 1,
						"w": 770,
						"h": 860
					}
				}
			]
		},
		{
			"image": "furniture-4.jpg",
			"format": "RGB888",
			"size": {
				"w": 772,
				"h": 862
			},
			"scale": 1,
			"frames": [
				{
					"filename": "0252.png",
					"rotated": false,
					"trimmed": false,
					"sourceSize": {
						"w": 770,
						"h": 860
					},
					"spriteSourceSize": {
						"x": 0,
						"y": 0,
						"w": 770,
						"h": 860
					},
					"frame": {
						"x": 1,
						"y": 1,
						"w": 770,
						"h": 860
					}
				}
			]
		},
		{
			"image": "furniture-5.jpg",
			"format": "RGB888",
			"size": {
				"w": 772,
				"h": 862
			},
			"scale": 1,
			"frames": [
				{
					"filename": "0253.png",
					"rotated": false,
					"trimmed": false,
					"sourceSize": {
						"w": 770,
						"h": 860
					},
					"spriteSourceSize": {
						"x": 0,
						"y": 0,
						"w": 770,
						"h": 860
					},
					"frame": {
						"x": 1,
						"y": 1,
						"w": 770,
						"h": 860
					}
				}
			]
		},
		{
			"image": "furniture-6.jpg",
			"format": "RGB888",
			"size": {
				"w": 772,
				"h": 862
			},
			"scale": 1,
			"frames": [
				{
					"filename": "0254.png",
					"rotated": false,
					"trimmed": false,
					"sourceSize": {
						"w": 770,
						"h": 860
					},
					"spriteSourceSize": {
						"x": 0,
						"y": 0,
						"w": 770,
						"h": 860
					},
					"frame": {
						"x": 1,
						"y": 1,
						"w": 770,
						"h": 860
					}
				}
			]
		},
		{
			"image": "furniture-7.jpg",
			"format": "RGB888",
			"size": {
				"w": 772,
				"h": 862
			},
			"scale": 1,
			"frames": [
				{
					"filename": "0255.png",
					"rotated": false,
					"trimmed": false,
					"sourceSize": {
						"w": 770,
						"h": 860
					},
					"spriteSourceSize": {
						"x": 0,
						"y": 0,
						"w": 770,
						"h": 860
					},
					"frame": {
						"x": 1,
						"y": 1,
						"w": 770,
						"h": 860
					}
				}
			]
		},
		{
			"image": "furniture-8.jpg",
			"format": "RGB888",
			"size": {
				"w": 772,
				"h": 862
			},
			"scale": 1,
			"frames": [
				{
					"filename": "0256.png",
					"rotated": false,
					"trimmed": false,
					"sourceSize": {
						"w": 770,
						"h": 860
					},
					"spriteSourceSize": {
						"x": 0,
						"y": 0,
						"w": 770,
						"h": 860
					},
					"frame": {
						"x": 1,
						"y": 1,
						"w": 770,
						"h": 860
					}
				}
			]
		},
		{
			"image": "furniture-9.jpg",
			"format": "RGB888",
			"size": {
				"w": 772,
				"h": 862
			},
			"scale": 1,
			"frames": [
				{
					"filename": "0257.png",
					"rotated": false,
					"trimmed": false,
					"sourceSize": {
						"w": 770,
						"h": 860
					},
					"spriteSourceSize": {
						"x": 0,
						"y": 0,
						"w": 770,
						"h": 860
					},
					"frame": {
						"x": 1,
						"y": 1,
						"w": 770,
						"h": 860
					}
				}
			]
		},
		{
			"image": "furniture-10.jpg",
			"format": "RGB888",
			"size": {
				"w": 772,
				"h": 862
			},
			"scale": 1,
			"frames": [
				{
					"filename": "0258.png",
					"rotated": false,
					"trimmed": false,
					"sourceSize": {
						"w": 770,
						"h": 860
					},
					"spriteSourceSize": {
						"x": 0,
						"y": 0,
						"w": 770,
						"h": 860
					},
					"frame": {
						"x": 1,
						"y": 1,
						"w": 770,
						"h": 860
					}
				}
			]
		},
		{
			"image": "furniture-11.jpg",
			"format": "RGB888",
			"size": {
				"w": 772,
				"h": 862
			},
			"scale": 1,
			"frames": [
				{
					"filename": "0259.png",
					"rotated": false,
					"trimmed": false,
					"sourceSize": {
						"w": 770,
						"h": 860
					},
					"spriteSourceSize": {
						"x": 0,
						"y": 0,
						"w": 770,
						"h": 860
					},
					"frame": {
						"x": 1,
						"y": 1,
						"w": 770,
						"h": 860
					}
				}
			]
		},
		{
			"image": "furniture-12.jpg",
			"format": "RGB888",
			"size": {
				"w": 772,
				"h": 862
			},
			"scale": 1,
			"frames": [
				{
					"filename": "0260.png",
					"rotated": false,
					"trimmed": false,
					"sourceSize": {
						"w": 770,
						"h": 860
					},
					"spriteSourceSize": {
						"x": 0,
						"y": 0,
						"w": 770,
						"h": 860
					},
					"frame": {
						"x": 1,
						"y": 1,
						"w": 770,
						"h": 860
					}
				}
			]
		},
		{
			"image": "furniture-13.jpg",
			"format": "RGB888",
			"size": {
				"w": 772,
				"h": 862
			},
			"scale": 1,
			"frames": [
				{
					"filename": "0261.png",
					"rotated": false,
					"trimmed": false,
					"sourceSize": {
						"w": 770,
						"h": 860
					},
					"spriteSourceSize": {
						"x": 0,
						"y": 0,
						"w": 770,
						"h": 860
					},
					"frame": {
						"x": 1,
						"y": 1,
						"w": 770,
						"h": 860
					}
				}
			]
		},
		{
			"image": "furniture-14.jpg",
			"format": "RGB888",
			"size": {
				"w": 772,
				"h": 862
			},
			"scale": 1,
			"frames": [
				{
					"filename": "0262.png",
					"rotated": false,
					"trimmed": false,
					"sourceSize": {
						"w": 770,
						"h": 860
					},
					"spriteSourceSize": {
						"x": 0,
						"y": 0,
						"w": 770,
						"h": 860
					},
					"frame": {
						"x": 1,
						"y": 1,
						"w": 770,
						"h": 860
					}
				}
			]
		},
		{
			"image": "furniture-15.jpg",
			"format": "RGB888",
			"size": {
				"w": 772,
				"h": 862
			},
			"scale": 1,
			"frames": [
				{
					"filename": "0263.png",
					"rotated": false,
					"trimmed": false,
					"sourceSize": {
						"w": 770,
						"h": 860
					},
					"spriteSourceSize": {
						"x": 0,
						"y": 0,
						"w": 770,
						"h": 860
					},
					"frame": {
						"x": 1,
						"y": 1,
						"w": 770,
						"h": 860
					}
				}
			]
		},
		{
			"image": "furniture-16.jpg",
			"format": "RGB888",
			"size": {
				"w": 772,
				"h": 862
			},
			"scale": 1,
			"frames": [
				{
					"filename": "0264.png",
					"rotated": false,
					"trimmed": false,
					"sourceSize": {
						"w": 770,
						"h": 860
					},
					"spriteSourceSize": {
						"x": 0,
						"y": 0,
						"w": 770,
						"h": 860
					},
					"frame": {
						"x": 1,
						"y": 1,
						"w": 770,
						"h": 860
					}
				}
			]
		},
		{
			"image": "furniture-17.jpg",
			"format": "RGB888",
			"size": {
				"w": 772,
				"h": 862
			},
			"scale": 1,
			"frames": [
				{
					"filename": "0265.png",
					"rotated": false,
					"trimmed": false,
					"sourceSize": {
						"w": 770,
						"h": 860
					},
					"spriteSourceSize": {
						"x": 0,
						"y": 0,
						"w": 770,
						"h": 860
					},
					"frame": {
						"x": 1,
						"y": 1,
						"w": 770,
						"h": 860
					}
				}
			]
		},
		{
			"image": "furniture-18.jpg",
			"format": "RGB888",
			"size": {
				"w": 772,
				"h": 862
			},
			"scale": 1,
			"frames": [
				{
					"filename": "0266.png",
					"rotated": false,
					"trimmed": false,
					"sourceSize": {
						"w": 770,
						"h": 860
					},
					"spriteSourceSize": {
						"x": 0,
						"y": 0,
						"w": 770,
						"h": 860
					},
					"frame": {
						"x": 1,
						"y": 1,
						"w": 770,
						"h": 860
					}
				}
			]
		},
		{
			"image": "furniture-19.jpg",
			"format": "RGB888",
			"size": {
				"w": 772,
				"h": 862
			},
			"scale": 1,
			"frames": [
				{
					"filename": "0267.png",
					"rotated": false,
					"trimmed": false,
					"sourceSize": {
						"w": 770,
						"h": 860
					},
					"spriteSourceSize": {
						"x": 0,
						"y": 0,
						"w": 770,
						"h": 860
					},
					"frame": {
						"x": 1,
						"y": 1,
						"w": 770,
						"h": 860
					}
				}
			]
		},
		{
			"image": "furniture-20.jpg",
			"format": "RGB888",
			"size": {
				"w": 772,
				"h": 862
			},
			"scale": 1,
			"frames": [
				{
					"filename": "0268.png",
					"rotated": false,
					"trimmed": false,
					"sourceSize": {
						"w": 770,
						"h": 860
					},
					"spriteSourceSize": {
						"x": 0,
						"y": 0,
						"w": 770,
						"h": 860
					},
					"frame": {
						"x": 1,
						"y": 1,
						"w": 770,
						"h": 860
					}
				}
			]
		},
		{
			"image": "furniture-21.jpg",
			"format": "RGB888",
			"size": {
				"w": 772,
				"h": 862
			},
			"scale": 1,
			"frames": [
				{
					"filename": "0269.png",
					"rotated": false,
					"trimmed": false,
					"sourceSize": {
						"w": 770,
						"h": 860
					},
					"spriteSourceSize": {
						"x": 0,
						"y": 0,
						"w": 770,
						"h": 860
					},
					"frame": {
						"x": 1,
						"y": 1,
						"w": 770,
						"h": 860
					}
				}
			]
		},
		{
			"image": "furniture-22.jpg",
			"format": "RGB888",
			"size": {
				"w": 772,
				"h": 862
			},
			"scale": 1,
			"frames": [
				{
					"filename": "0270.png",
					"rotated": false,
					"trimmed": false,
					"sourceSize": {
						"w": 770,
						"h": 860
					},
					"spriteSourceSize": {
						"x": 0,
						"y": 0,
						"w": 770,
						"h": 860
					},
					"frame": {
						"x": 1,
						"y": 1,
						"w": 770,
						"h": 860
					}
				}
			]
		}
	],
	"meta": {
		"app": "https://www.codeandweb.com/texturepacker",
		"version": "3.0",
		"smartupdate": "$TexturePacker:SmartUpdate:5706ad2704111f4afa5e147147760ac7:bad1786af43ecc6b9c4f28409478a972:73a114f94fb44f687edd71573f64893f$"
	}
}
