{"frames": [

{
	"filename": "0248.png",
	"frame": {"x":1,"y":1,"w":770,"h":860},
	"rotated": false,
	"trimmed": false,
	"spriteSourceSize": {"x":0,"y":0,"w":770,"h":860},
	"sourceSize": {"w":770,"h":860}
},
{
	"filename": "0249.png",
	"frame": {"x":773,"y":1,"w":770,"h":860},
	"rotated": false,
	"trimmed": false,
	"spriteSourceSize": {"x":0,"y":0,"w":770,"h":860},
	"sourceSize": {"w":770,"h":860}
},
{
	"filename": "0250.png",
	"frame": {"x":1545,"y":1,"w":770,"h":860},
	"rotated": false,
	"trimmed": false,
	"spriteSourceSize": {"x":0,"y":0,"w":770,"h":860},
	"sourceSize": {"w":770,"h":860}
},
{
	"filename": "0251.png",
	"frame": {"x":2317,"y":1,"w":770,"h":860},
	"rotated": false,
	"trimmed": false,
	"spriteSourceSize": {"x":0,"y":0,"w":770,"h":860},
	"sourceSize": {"w":770,"h":860}
},
{
	"filename": "0252.png",
	"frame": {"x":3089,"y":1,"w":770,"h":860},
	"rotated": false,
	"trimmed": false,
	"spriteSourceSize": {"x":0,"y":0,"w":770,"h":860},
	"sourceSize": {"w":770,"h":860}
},
{
	"filename": "0253.png",
	"frame": {"x":1,"y":863,"w":770,"h":860},
	"rotated": false,
	"trimmed": false,
	"spriteSourceSize": {"x":0,"y":0,"w":770,"h":860},
	"sourceSize": {"w":770,"h":860}
},
{
	"filename": "0254.png",
	"frame": {"x":773,"y":863,"w":770,"h":860},
	"rotated": false,
	"trimmed": false,
	"spriteSourceSize": {"x":0,"y":0,"w":770,"h":860},
	"sourceSize": {"w":770,"h":860}
},
{
	"filename": "0255.png",
	"frame": {"x":1545,"y":863,"w":770,"h":860},
	"rotated": false,
	"trimmed": false,
	"spriteSourceSize": {"x":0,"y":0,"w":770,"h":860},
	"sourceSize": {"w":770,"h":860}
},
{
	"filename": "0256.png",
	"frame": {"x":2317,"y":863,"w":770,"h":860},
	"rotated": false,
	"trimmed": false,
	"spriteSourceSize": {"x":0,"y":0,"w":770,"h":860},
	"sourceSize": {"w":770,"h":860}
},
{
	"filename": "0257.png",
	"frame": {"x":3089,"y":863,"w":770,"h":860},
	"rotated": false,
	"trimmed": false,
	"spriteSourceSize": {"x":0,"y":0,"w":770,"h":860},
	"sourceSize": {"w":770,"h":860}
},
{
	"filename": "0258.png",
	"frame": {"x":1,"y":1725,"w":770,"h":860},
	"rotated": false,
	"trimmed": false,
	"spriteSourceSize": {"x":0,"y":0,"w":770,"h":860},
	"sourceSize": {"w":770,"h":860}
},
{
	"filename": "0259.png",
	"frame": {"x":773,"y":1725,"w":770,"h":860},
	"rotated": false,
	"trimmed": false,
	"spriteSourceSize": {"x":0,"y":0,"w":770,"h":860},
	"sourceSize": {"w":770,"h":860}
},
{
	"filename": "0260.png",
	"frame": {"x":1545,"y":1725,"w":770,"h":860},
	"rotated": false,
	"trimmed": false,
	"spriteSourceSize": {"x":0,"y":0,"w":770,"h":860},
	"sourceSize": {"w":770,"h":860}
},
{
	"filename": "0261.png",
	"frame": {"x":2317,"y":1725,"w":770,"h":860},
	"rotated": false,
	"trimmed": false,
	"spriteSourceSize": {"x":0,"y":0,"w":770,"h":860},
	"sourceSize": {"w":770,"h":860}
},
{
	"filename": "0262.png",
	"frame": {"x":3089,"y":1725,"w":770,"h":860},
	"rotated": false,
	"trimmed": false,
	"spriteSourceSize": {"x":0,"y":0,"w":770,"h":860},
	"sourceSize": {"w":770,"h":860}
},
{
	"filename": "0263.png",
	"frame": {"x":1,"y":2587,"w":770,"h":860},
	"rotated": false,
	"trimmed": false,
	"spriteSourceSize": {"x":0,"y":0,"w":770,"h":860},
	"sourceSize": {"w":770,"h":860}
},
{
	"filename": "0264.png",
	"frame": {"x":773,"y":2587,"w":770,"h":860},
	"rotated": false,
	"trimmed": false,
	"spriteSourceSize": {"x":0,"y":0,"w":770,"h":860},
	"sourceSize": {"w":770,"h":860}
},
{
	"filename": "0265.png",
	"frame": {"x":1545,"y":2587,"w":770,"h":860},
	"rotated": false,
	"trimmed": false,
	"spriteSourceSize": {"x":0,"y":0,"w":770,"h":860},
	"sourceSize": {"w":770,"h":860}
},
{
	"filename": "0266.png",
	"frame": {"x":2317,"y":2587,"w":770,"h":860},
	"rotated": false,
	"trimmed": false,
	"spriteSourceSize": {"x":0,"y":0,"w":770,"h":860},
	"sourceSize": {"w":770,"h":860}
},
{
	"filename": "0267.png",
	"frame": {"x":3089,"y":2587,"w":770,"h":860},
	"rotated": false,
	"trimmed": false,
	"spriteSourceSize": {"x":0,"y":0,"w":770,"h":860},
	"sourceSize": {"w":770,"h":860}
},
{
	"filename": "0268.png",
	"frame": {"x":1,"y":3449,"w":770,"h":860},
	"rotated": false,
	"trimmed": false,
	"spriteSourceSize": {"x":0,"y":0,"w":770,"h":860},
	"sourceSize": {"w":770,"h":860}
},
{
	"filename": "0269.png",
	"frame": {"x":773,"y":3449,"w":770,"h":860},
	"rotated": false,
	"trimmed": false,
	"spriteSourceSize": {"x":0,"y":0,"w":770,"h":860},
	"sourceSize": {"w":770,"h":860}
},
{
	"filename": "0270.png",
	"frame": {"x":1545,"y":3449,"w":770,"h":860},
	"rotated": false,
	"trimmed": false,
	"spriteSourceSize": {"x":0,"y":0,"w":770,"h":860},
	"sourceSize": {"w":770,"h":860}
}],
"meta": {
	"app": "https://www.codeandweb.com/texturepacker",
	"version": "1.0",
	"image": "furniture.jpg",
	"format": "RGB888",
	"size": {"w":3860,"h":4310},
	"scale": "1",
	"smartupdate": "$TexturePacker:SmartUpdate:2e631e68beb4415528f4ef8591dc36bd:8c18222a50b4b49ca05afcf5e9a2d316:79bec1fefcbf57e107b8fd09646909ed$"
}
}
