{
	"textures": [
		{
			"image": "data-0.jpg",
			"format": "RGB888",
			"size": {
				"w": 670,
				"h": 877
			},
			"scale": 1,
			"frames": [
				{
					"filename": "0040.png",
					"rotated": false,
					"trimmed": false,
					"sourceSize": {
						"w": 670,
						"h": 877
					},
					"spriteSourceSize": {
						"x": 0,
						"y": 0,
						"w": 670,
						"h": 877
					},
					"frame": {
						"x": 0,
						"y": 0,
						"w": 670,
						"h": 877
					}
				}
			]
		},
		{
			"image": "data-1.jpg",
			"format": "RGB888",
			"size": {
				"w": 670,
				"h": 877
			},
			"scale": 1,
			"frames": [
				{
					"filename": "0041.png",
					"rotated": false,
					"trimmed": false,
					"sourceSize": {
						"w": 670,
						"h": 877
					},
					"spriteSourceSize": {
						"x": 0,
						"y": 0,
						"w": 670,
						"h": 877
					},
					"frame": {
						"x": 0,
						"y": 0,
						"w": 670,
						"h": 877
					}
				}
			]
		},
		{
			"image": "data-2.jpg",
			"format": "RGB888",
			"size": {
				"w": 670,
				"h": 877
			},
			"scale": 1,
			"frames": [
				{
					"filename": "0042.png",
					"rotated": false,
					"trimmed": false,
					"sourceSize": {
						"w": 670,
						"h": 877
					},
					"spriteSourceSize": {
						"x": 0,
						"y": 0,
						"w": 670,
						"h": 877
					},
					"frame": {
						"x": 0,
						"y": 0,
						"w": 670,
						"h": 877
					}
				}
			]
		},
		{
			"image": "data-3.jpg",
			"format": "RGB888",
			"size": {
				"w": 670,
				"h": 877
			},
			"scale": 1,
			"frames": [
				{
					"filename": "0043.png",
					"rotated": false,
					"trimmed": false,
					"sourceSize": {
						"w": 670,
						"h": 877
					},
					"spriteSourceSize": {
						"x": 0,
						"y": 0,
						"w": 670,
						"h": 877
					},
					"frame": {
						"x": 0,
						"y": 0,
						"w": 670,
						"h": 877
					}
				}
			]
		},
		{
			"image": "data-4.jpg",
			"format": "RGB888",
			"size": {
				"w": 670,
				"h": 877
			},
			"scale": 1,
			"frames": [
				{
					"filename": "0044.png",
					"rotated": false,
					"trimmed": false,
					"sourceSize": {
						"w": 670,
						"h": 877
					},
					"spriteSourceSize": {
						"x": 0,
						"y": 0,
						"w": 670,
						"h": 877
					},
					"frame": {
						"x": 0,
						"y": 0,
						"w": 670,
						"h": 877
					}
				}
			]
		},
		{
			"image": "data-5.jpg",
			"format": "RGB888",
			"size": {
				"w": 670,
				"h": 877
			},
			"scale": 1,
			"frames": [
				{
					"filename": "0045.png",
					"rotated": false,
					"trimmed": false,
					"sourceSize": {
						"w": 670,
						"h": 877
					},
					"spriteSourceSize": {
						"x": 0,
						"y": 0,
						"w": 670,
						"h": 877
					},
					"frame": {
						"x": 0,
						"y": 0,
						"w": 670,
						"h": 877
					}
				}
			]
		},
		{
			"image": "data-6.jpg",
			"format": "RGB888",
			"size": {
				"w": 670,
				"h": 877
			},
			"scale": 1,
			"frames": [
				{
					"filename": "0046.png",
					"rotated": false,
					"trimmed": false,
					"sourceSize": {
						"w": 670,
						"h": 877
					},
					"spriteSourceSize": {
						"x": 0,
						"y": 0,
						"w": 670,
						"h": 877
					},
					"frame": {
						"x": 0,
						"y": 0,
						"w": 670,
						"h": 877
					}
				}
			]
		},
		{
			"image": "data-7.jpg",
			"format": "RGB888",
			"size": {
				"w": 670,
				"h": 877
			},
			"scale": 1,
			"frames": [
				{
					"filename": "0047.png",
					"rotated": false,
					"trimmed": false,
					"sourceSize": {
						"w": 670,
						"h": 877
					},
					"spriteSourceSize": {
						"x": 0,
						"y": 0,
						"w": 670,
						"h": 877
					},
					"frame": {
						"x": 0,
						"y": 0,
						"w": 670,
						"h": 877
					}
				}
			]
		},
		{
			"image": "data-8.jpg",
			"format": "RGB888",
			"size": {
				"w": 670,
				"h": 877
			},
			"scale": 1,
			"frames": [
				{
					"filename": "0048.png",
					"rotated": false,
					"trimmed": false,
					"sourceSize": {
						"w": 670,
						"h": 877
					},
					"spriteSourceSize": {
						"x": 0,
						"y": 0,
						"w": 670,
						"h": 877
					},
					"frame": {
						"x": 0,
						"y": 0,
						"w": 670,
						"h": 877
					}
				}
			]
		},
		{
			"image": "data-9.jpg",
			"format": "RGB888",
			"size": {
				"w": 670,
				"h": 877
			},
			"scale": 1,
			"frames": [
				{
					"filename": "0049.png",
					"rotated": false,
					"trimmed": false,
					"sourceSize": {
						"w": 670,
						"h": 877
					},
					"spriteSourceSize": {
						"x": 0,
						"y": 0,
						"w": 670,
						"h": 877
					},
					"frame": {
						"x": 0,
						"y": 0,
						"w": 670,
						"h": 877
					}
				}
			]
		},
		{
			"image": "data-10.jpg",
			"format": "RGB888",
			"size": {
				"w": 670,
				"h": 877
			},
			"scale": 1,
			"frames": [
				{
					"filename": "0050.png",
					"rotated": false,
					"trimmed": false,
					"sourceSize": {
						"w": 670,
						"h": 877
					},
					"spriteSourceSize": {
						"x": 0,
						"y": 0,
						"w": 670,
						"h": 877
					},
					"frame": {
						"x": 0,
						"y": 0,
						"w": 670,
						"h": 877
					}
				}
			]
		},
		{
			"image": "data-11.jpg",
			"format": "RGB888",
			"size": {
				"w": 670,
				"h": 877
			},
			"scale": 1,
			"frames": [
				{
					"filename": "0051.png",
					"rotated": false,
					"trimmed": false,
					"sourceSize": {
						"w": 670,
						"h": 877
					},
					"spriteSourceSize": {
						"x": 0,
						"y": 0,
						"w": 670,
						"h": 877
					},
					"frame": {
						"x": 0,
						"y": 0,
						"w": 670,
						"h": 877
					}
				}
			]
		},
		{
			"image": "data-12.jpg",
			"format": "RGB888",
			"size": {
				"w": 670,
				"h": 877
			},
			"scale": 1,
			"frames": [
				{
					"filename": "0052.png",
					"rotated": false,
					"trimmed": false,
					"sourceSize": {
						"w": 670,
						"h": 877
					},
					"spriteSourceSize": {
						"x": 0,
						"y": 0,
						"w": 670,
						"h": 877
					},
					"frame": {
						"x": 0,
						"y": 0,
						"w": 670,
						"h": 877
					}
				}
			]
		},
		{
			"image": "data-13.jpg",
			"format": "RGB888",
			"size": {
				"w": 670,
				"h": 877
			},
			"scale": 1,
			"frames": [
				{
					"filename": "0053.png",
					"rotated": false,
					"trimmed": false,
					"sourceSize": {
						"w": 670,
						"h": 877
					},
					"spriteSourceSize": {
						"x": 0,
						"y": 0,
						"w": 670,
						"h": 877
					},
					"frame": {
						"x": 0,
						"y": 0,
						"w": 670,
						"h": 877
					}
				}
			]
		},
		{
			"image": "data-14.jpg",
			"format": "RGB888",
			"size": {
				"w": 670,
				"h": 877
			},
			"scale": 1,
			"frames": [
				{
					"filename": "0054.png",
					"rotated": false,
					"trimmed": false,
					"sourceSize": {
						"w": 670,
						"h": 877
					},
					"spriteSourceSize": {
						"x": 0,
						"y": 0,
						"w": 670,
						"h": 877
					},
					"frame": {
						"x": 0,
						"y": 0,
						"w": 670,
						"h": 877
					}
				}
			]
		},
		{
			"image": "data-15.jpg",
			"format": "RGB888",
			"size": {
				"w": 670,
				"h": 877
			},
			"scale": 1,
			"frames": [
				{
					"filename": "0055.png",
					"rotated": false,
					"trimmed": false,
					"sourceSize": {
						"w": 670,
						"h": 877
					},
					"spriteSourceSize": {
						"x": 0,
						"y": 0,
						"w": 670,
						"h": 877
					},
					"frame": {
						"x": 0,
						"y": 0,
						"w": 670,
						"h": 877
					}
				}
			]
		},
		{
			"image": "data-16.jpg",
			"format": "RGB888",
			"size": {
				"w": 670,
				"h": 877
			},
			"scale": 1,
			"frames": [
				{
					"filename": "0056.png",
					"rotated": false,
					"trimmed": false,
					"sourceSize": {
						"w": 670,
						"h": 877
					},
					"spriteSourceSize": {
						"x": 0,
						"y": 0,
						"w": 670,
						"h": 877
					},
					"frame": {
						"x": 0,
						"y": 0,
						"w": 670,
						"h": 877
					}
				}
			]
		},
		{
			"image": "data-17.jpg",
			"format": "RGB888",
			"size": {
				"w": 670,
				"h": 877
			},
			"scale": 1,
			"frames": [
				{
					"filename": "0057.png",
					"rotated": false,
					"trimmed": false,
					"sourceSize": {
						"w": 670,
						"h": 877
					},
					"spriteSourceSize": {
						"x": 0,
						"y": 0,
						"w": 670,
						"h": 877
					},
					"frame": {
						"x": 0,
						"y": 0,
						"w": 670,
						"h": 877
					}
				}
			]
		},
		{
			"image": "data-18.jpg",
			"format": "RGB888",
			"size": {
				"w": 670,
				"h": 877
			},
			"scale": 1,
			"frames": [
				{
					"filename": "0058.png",
					"rotated": false,
					"trimmed": false,
					"sourceSize": {
						"w": 670,
						"h": 877
					},
					"spriteSourceSize": {
						"x": 0,
						"y": 0,
						"w": 670,
						"h": 877
					},
					"frame": {
						"x": 0,
						"y": 0,
						"w": 670,
						"h": 877
					}
				}
			]
		},
		{
			"image": "data-19.jpg",
			"format": "RGB888",
			"size": {
				"w": 670,
				"h": 877
			},
			"scale": 1,
			"frames": [
				{
					"filename": "0059.png",
					"rotated": false,
					"trimmed": false,
					"sourceSize": {
						"w": 670,
						"h": 877
					},
					"spriteSourceSize": {
						"x": 0,
						"y": 0,
						"w": 670,
						"h": 877
					},
					"frame": {
						"x": 0,
						"y": 0,
						"w": 670,
						"h": 877
					}
				}
			]
		},
		{
			"image": "data-20.jpg",
			"format": "RGB888",
			"size": {
				"w": 670,
				"h": 877
			},
			"scale": 1,
			"frames": [
				{
					"filename": "0060.png",
					"rotated": false,
					"trimmed": false,
					"sourceSize": {
						"w": 670,
						"h": 877
					},
					"spriteSourceSize": {
						"x": 0,
						"y": 0,
						"w": 670,
						"h": 877
					},
					"frame": {
						"x": 0,
						"y": 0,
						"w": 670,
						"h": 877
					}
				}
			]
		},
		{
			"image": "data-21.jpg",
			"format": "RGB888",
			"size": {
				"w": 670,
				"h": 877
			},
			"scale": 1,
			"frames": [
				{
					"filename": "0061.png",
					"rotated": false,
					"trimmed": false,
					"sourceSize": {
						"w": 670,
						"h": 877
					},
					"spriteSourceSize": {
						"x": 0,
						"y": 0,
						"w": 670,
						"h": 877
					},
					"frame": {
						"x": 0,
						"y": 0,
						"w": 670,
						"h": 877
					}
				}
			]
		},
		{
			"image": "data-22.jpg",
			"format": "RGB888",
			"size": {
				"w": 670,
				"h": 877
			},
			"scale": 1,
			"frames": [
				{
					"filename": "0062.png",
					"rotated": false,
					"trimmed": false,
					"sourceSize": {
						"w": 670,
						"h": 877
					},
					"spriteSourceSize": {
						"x": 0,
						"y": 0,
						"w": 670,
						"h": 877
					},
					"frame": {
						"x": 0,
						"y": 0,
						"w": 670,
						"h": 877
					}
				}
			]
		},
		{
			"image": "data-23.jpg",
			"format": "RGB888",
			"size": {
				"w": 670,
				"h": 877
			},
			"scale": 1,
			"frames": [
				{
					"filename": "0063.png",
					"rotated": false,
					"trimmed": false,
					"sourceSize": {
						"w": 670,
						"h": 877
					},
					"spriteSourceSize": {
						"x": 0,
						"y": 0,
						"w": 670,
						"h": 877
					},
					"frame": {
						"x": 0,
						"y": 0,
						"w": 670,
						"h": 877
					}
				}
			]
		},
		{
			"image": "data-24.jpg",
			"format": "RGB888",
			"size": {
				"w": 670,
				"h": 877
			},
			"scale": 1,
			"frames": [
				{
					"filename": "0064.png",
					"rotated": false,
					"trimmed": false,
					"sourceSize": {
						"w": 670,
						"h": 877
					},
					"spriteSourceSize": {
						"x": 0,
						"y": 0,
						"w": 670,
						"h": 877
					},
					"frame": {
						"x": 0,
						"y": 0,
						"w": 670,
						"h": 877
					}
				}
			]
		},
		{
			"image": "data-25.jpg",
			"format": "RGB888",
			"size": {
				"w": 670,
				"h": 877
			},
			"scale": 1,
			"frames": [
				{
					"filename": "0065.png",
					"rotated": false,
					"trimmed": false,
					"sourceSize": {
						"w": 670,
						"h": 877
					},
					"spriteSourceSize": {
						"x": 0,
						"y": 0,
						"w": 670,
						"h": 877
					},
					"frame": {
						"x": 0,
						"y": 0,
						"w": 670,
						"h": 877
					}
				}
			]
		}
	],
	"meta": {
		"app": "https://www.codeandweb.com/texturepacker",
		"version": "3.0",
		"smartupdate": "$TexturePacker:SmartUpdate:38bd73c6a6099374fe4f5079f05443e0:d9c8f896291105142d52cb66472841c3:def80d2ac64192e2793cfce2ae925ba4$"
	}
}
