{"frames": [

{
	"filename": "0411.png",
	"frame": {"x":1,"y":1,"w":770,"h":860},
	"rotated": false,
	"trimmed": false,
	"spriteSourceSize": {"x":0,"y":0,"w":770,"h":860},
	"sourceSize": {"w":770,"h":860}
}],
"meta": {
	"app": "https://www.codeandweb.com/texturepacker",
	"version": "1.0",
	"image": "final.mobile.jpg",
	"format": "RGB888",
	"size": {"w":772,"h":862},
	"scale": "1",
	"smartupdate": "$TexturePacker:SmartUpdate:6e524061819bbb514b8889c7acf6c597:d7082505cea6905e40859ca04695f187:0e9ea0f35adf105d48f4263b3346ac6e$"
}
}
