{"frames": [

{
	"filename": "0050.png",
	"frame": {"x":1,"y":1,"w":770,"h":860},
	"rotated": false,
	"trimmed": false,
	"spriteSourceSize": {"x":0,"y":0,"w":770,"h":860},
	"sourceSize": {"w":770,"h":860}
}],
"meta": {
	"app": "https://www.codeandweb.com/texturepacker",
	"version": "1.0",
	"image": "intro.mobile.jpg",
	"format": "RGB888",
	"size": {"w":772,"h":862},
	"scale": "1",
	"smartupdate": "$TexturePacker:SmartUpdate:2c1676a87aec1a0b59073ad1ba839b94:80c07626ffcc404c0dd212889823c84f:7e6220ad8b777428c672f64273ae9693$"
}
}
