{"frames": [

{
	"filename": "0000.png",
	"frame": {"x":1,"y":1,"w":568,"h":600},
	"rotated": false,
	"trimmed": false,
	"spriteSourceSize": {"x":0,"y":0,"w":568,"h":600},
	"sourceSize": {"w":568,"h":600}
},
{
	"filename": "0001.png",
	"frame": {"x":571,"y":1,"w":568,"h":600},
	"rotated": false,
	"trimmed": false,
	"spriteSourceSize": {"x":0,"y":0,"w":568,"h":600},
	"sourceSize": {"w":568,"h":600}
},
{
	"filename": "0002.png",
	"frame": {"x":1141,"y":1,"w":568,"h":600},
	"rotated": false,
	"trimmed": false,
	"spriteSourceSize": {"x":0,"y":0,"w":568,"h":600},
	"sourceSize": {"w":568,"h":600}
},
{
	"filename": "0003.png",
	"frame": {"x":1,"y":603,"w":568,"h":600},
	"rotated": false,
	"trimmed": false,
	"spriteSourceSize": {"x":0,"y":0,"w":568,"h":600},
	"sourceSize": {"w":568,"h":600}
},
{
	"filename": "0004.png",
	"frame": {"x":571,"y":603,"w":568,"h":600},
	"rotated": false,
	"trimmed": false,
	"spriteSourceSize": {"x":0,"y":0,"w":568,"h":600},
	"sourceSize": {"w":568,"h":600}
},
{
	"filename": "0005.png",
	"frame": {"x":1141,"y":603,"w":568,"h":600},
	"rotated": false,
	"trimmed": false,
	"spriteSourceSize": {"x":0,"y":0,"w":568,"h":600},
	"sourceSize": {"w":568,"h":600}
},
{
	"filename": "0006.png",
	"frame": {"x":1,"y":1205,"w":568,"h":600},
	"rotated": false,
	"trimmed": false,
	"spriteSourceSize": {"x":0,"y":0,"w":568,"h":600},
	"sourceSize": {"w":568,"h":600}
},
{
	"filename": "0007.png",
	"frame": {"x":571,"y":1205,"w":568,"h":600},
	"rotated": false,
	"trimmed": false,
	"spriteSourceSize": {"x":0,"y":0,"w":568,"h":600},
	"sourceSize": {"w":568,"h":600}
},
{
	"filename": "0008.png",
	"frame": {"x":1141,"y":1205,"w":568,"h":600},
	"rotated": false,
	"trimmed": false,
	"spriteSourceSize": {"x":0,"y":0,"w":568,"h":600},
	"sourceSize": {"w":568,"h":600}
},
{
	"filename": "0009.png",
	"frame": {"x":1,"y":1807,"w":568,"h":600},
	"rotated": false,
	"trimmed": false,
	"spriteSourceSize": {"x":0,"y":0,"w":568,"h":600},
	"sourceSize": {"w":568,"h":600}
},
{
	"filename": "0010.png",
	"frame": {"x":571,"y":1807,"w":568,"h":600},
	"rotated": false,
	"trimmed": false,
	"spriteSourceSize": {"x":0,"y":0,"w":568,"h":600},
	"sourceSize": {"w":568,"h":600}
}],
"meta": {
	"app": "https://www.codeandweb.com/texturepacker",
	"version": "1.0",
	"image": "hero.jpg",
	"format": "RGB888",
	"size": {"w":1710,"h":2408},
	"scale": "1",
	"smartupdate": "$TexturePacker:SmartUpdate:2eee6b540abead3663d2f276fb18eaa9:e0e665de66ec9fb919e188a16b96fbd2:497e9a0045a024270a4756485666d2c0$"
}
}
