{
	"textures": [
		{
			"image": "data-0.jpg",
			"format": "RGB888",
			"size": {
				"w": 670,
				"h": 877
			},
			"scale": 1,
			"frames": [
				{
					"filename": "0000.png",
					"rotated": false,
					"trimmed": false,
					"sourceSize": {
						"w": 670,
						"h": 877
					},
					"spriteSourceSize": {
						"x": 0,
						"y": 0,
						"w": 670,
						"h": 877
					},
					"frame": {
						"x": 0,
						"y": 0,
						"w": 670,
						"h": 877
					}
				}
			]
		},
		{
			"image": "data-1.jpg",
			"format": "RGB888",
			"size": {
				"w": 670,
				"h": 877
			},
			"scale": 1,
			"frames": [
				{
					"filename": "0001.png",
					"rotated": false,
					"trimmed": false,
					"sourceSize": {
						"w": 670,
						"h": 877
					},
					"spriteSourceSize": {
						"x": 0,
						"y": 0,
						"w": 670,
						"h": 877
					},
					"frame": {
						"x": 0,
						"y": 0,
						"w": 670,
						"h": 877
					}
				}
			]
		},
		{
			"image": "data-2.jpg",
			"format": "RGB888",
			"size": {
				"w": 670,
				"h": 877
			},
			"scale": 1,
			"frames": [
				{
					"filename": "0002.png",
					"rotated": false,
					"trimmed": false,
					"sourceSize": {
						"w": 670,
						"h": 877
					},
					"spriteSourceSize": {
						"x": 0,
						"y": 0,
						"w": 670,
						"h": 877
					},
					"frame": {
						"x": 0,
						"y": 0,
						"w": 670,
						"h": 877
					}
				}
			]
		},
		{
			"image": "data-3.jpg",
			"format": "RGB888",
			"size": {
				"w": 670,
				"h": 877
			},
			"scale": 1,
			"frames": [
				{
					"filename": "0003.png",
					"rotated": false,
					"trimmed": false,
					"sourceSize": {
						"w": 670,
						"h": 877
					},
					"spriteSourceSize": {
						"x": 0,
						"y": 0,
						"w": 670,
						"h": 877
					},
					"frame": {
						"x": 0,
						"y": 0,
						"w": 670,
						"h": 877
					}
				}
			]
		},
		{
			"image": "data-4.jpg",
			"format": "RGB888",
			"size": {
				"w": 670,
				"h": 877
			},
			"scale": 1,
			"frames": [
				{
					"filename": "0004.png",
					"rotated": false,
					"trimmed": false,
					"sourceSize": {
						"w": 670,
						"h": 877
					},
					"spriteSourceSize": {
						"x": 0,
						"y": 0,
						"w": 670,
						"h": 877
					},
					"frame": {
						"x": 0,
						"y": 0,
						"w": 670,
						"h": 877
					}
				}
			]
		},
		{
			"image": "data-5.jpg",
			"format": "RGB888",
			"size": {
				"w": 670,
				"h": 877
			},
			"scale": 1,
			"frames": [
				{
					"filename": "0005.png",
					"rotated": false,
					"trimmed": false,
					"sourceSize": {
						"w": 670,
						"h": 877
					},
					"spriteSourceSize": {
						"x": 0,
						"y": 0,
						"w": 670,
						"h": 877
					},
					"frame": {
						"x": 0,
						"y": 0,
						"w": 670,
						"h": 877
					}
				}
			]
		},
		{
			"image": "data-6.jpg",
			"format": "RGB888",
			"size": {
				"w": 670,
				"h": 877
			},
			"scale": 1,
			"frames": [
				{
					"filename": "0006.png",
					"rotated": false,
					"trimmed": false,
					"sourceSize": {
						"w": 670,
						"h": 877
					},
					"spriteSourceSize": {
						"x": 0,
						"y": 0,
						"w": 670,
						"h": 877
					},
					"frame": {
						"x": 0,
						"y": 0,
						"w": 670,
						"h": 877
					}
				}
			]
		},
		{
			"image": "data-7.jpg",
			"format": "RGB888",
			"size": {
				"w": 670,
				"h": 877
			},
			"scale": 1,
			"frames": [
				{
					"filename": "0007.png",
					"rotated": false,
					"trimmed": false,
					"sourceSize": {
						"w": 670,
						"h": 877
					},
					"spriteSourceSize": {
						"x": 0,
						"y": 0,
						"w": 670,
						"h": 877
					},
					"frame": {
						"x": 0,
						"y": 0,
						"w": 670,
						"h": 877
					}
				}
			]
		},
		{
			"image": "data-8.jpg",
			"format": "RGB888",
			"size": {
				"w": 670,
				"h": 877
			},
			"scale": 1,
			"frames": [
				{
					"filename": "0008.png",
					"rotated": false,
					"trimmed": false,
					"sourceSize": {
						"w": 670,
						"h": 877
					},
					"spriteSourceSize": {
						"x": 0,
						"y": 0,
						"w": 670,
						"h": 877
					},
					"frame": {
						"x": 0,
						"y": 0,
						"w": 670,
						"h": 877
					}
				}
			]
		},
		{
			"image": "data-9.jpg",
			"format": "RGB888",
			"size": {
				"w": 670,
				"h": 877
			},
			"scale": 1,
			"frames": [
				{
					"filename": "0009.png",
					"rotated": false,
					"trimmed": false,
					"sourceSize": {
						"w": 670,
						"h": 877
					},
					"spriteSourceSize": {
						"x": 0,
						"y": 0,
						"w": 670,
						"h": 877
					},
					"frame": {
						"x": 0,
						"y": 0,
						"w": 670,
						"h": 877
					}
				}
			]
		},
		{
			"image": "data-10.jpg",
			"format": "RGB888",
			"size": {
				"w": 670,
				"h": 877
			},
			"scale": 1,
			"frames": [
				{
					"filename": "0010.png",
					"rotated": false,
					"trimmed": false,
					"sourceSize": {
						"w": 670,
						"h": 877
					},
					"spriteSourceSize": {
						"x": 0,
						"y": 0,
						"w": 670,
						"h": 877
					},
					"frame": {
						"x": 0,
						"y": 0,
						"w": 670,
						"h": 877
					}
				}
			]
		},
		{
			"image": "data-11.jpg",
			"format": "RGB888",
			"size": {
				"w": 670,
				"h": 877
			},
			"scale": 1,
			"frames": [
				{
					"filename": "0011.png",
					"rotated": false,
					"trimmed": false,
					"sourceSize": {
						"w": 670,
						"h": 877
					},
					"spriteSourceSize": {
						"x": 0,
						"y": 0,
						"w": 670,
						"h": 877
					},
					"frame": {
						"x": 0,
						"y": 0,
						"w": 670,
						"h": 877
					}
				}
			]
		},
		{
			"image": "data-12.jpg",
			"format": "RGB888",
			"size": {
				"w": 670,
				"h": 877
			},
			"scale": 1,
			"frames": [
				{
					"filename": "0012.png",
					"rotated": false,
					"trimmed": false,
					"sourceSize": {
						"w": 670,
						"h": 877
					},
					"spriteSourceSize": {
						"x": 0,
						"y": 0,
						"w": 670,
						"h": 877
					},
					"frame": {
						"x": 0,
						"y": 0,
						"w": 670,
						"h": 877
					}
				}
			]
		},
		{
			"image": "data-13.jpg",
			"format": "RGB888",
			"size": {
				"w": 670,
				"h": 877
			},
			"scale": 1,
			"frames": [
				{
					"filename": "0013.png",
					"rotated": false,
					"trimmed": false,
					"sourceSize": {
						"w": 670,
						"h": 877
					},
					"spriteSourceSize": {
						"x": 0,
						"y": 0,
						"w": 670,
						"h": 877
					},
					"frame": {
						"x": 0,
						"y": 0,
						"w": 670,
						"h": 877
					}
				}
			]
		},
		{
			"image": "data-14.jpg",
			"format": "RGB888",
			"size": {
				"w": 670,
				"h": 877
			},
			"scale": 1,
			"frames": [
				{
					"filename": "0014.png",
					"rotated": false,
					"trimmed": false,
					"sourceSize": {
						"w": 670,
						"h": 877
					},
					"spriteSourceSize": {
						"x": 0,
						"y": 0,
						"w": 670,
						"h": 877
					},
					"frame": {
						"x": 0,
						"y": 0,
						"w": 670,
						"h": 877
					}
				}
			]
		},
		{
			"image": "data-15.jpg",
			"format": "RGB888",
			"size": {
				"w": 670,
				"h": 877
			},
			"scale": 1,
			"frames": [
				{
					"filename": "0015.png",
					"rotated": false,
					"trimmed": false,
					"sourceSize": {
						"w": 670,
						"h": 877
					},
					"spriteSourceSize": {
						"x": 0,
						"y": 0,
						"w": 670,
						"h": 877
					},
					"frame": {
						"x": 0,
						"y": 0,
						"w": 670,
						"h": 877
					}
				}
			]
		},
		{
			"image": "data-16.jpg",
			"format": "RGB888",
			"size": {
				"w": 670,
				"h": 877
			},
			"scale": 1,
			"frames": [
				{
					"filename": "0016.png",
					"rotated": false,
					"trimmed": false,
					"sourceSize": {
						"w": 670,
						"h": 877
					},
					"spriteSourceSize": {
						"x": 0,
						"y": 0,
						"w": 670,
						"h": 877
					},
					"frame": {
						"x": 0,
						"y": 0,
						"w": 670,
						"h": 877
					}
				}
			]
		},
		{
			"image": "data-17.jpg",
			"format": "RGB888",
			"size": {
				"w": 670,
				"h": 877
			},
			"scale": 1,
			"frames": [
				{
					"filename": "0017.png",
					"rotated": false,
					"trimmed": false,
					"sourceSize": {
						"w": 670,
						"h": 877
					},
					"spriteSourceSize": {
						"x": 0,
						"y": 0,
						"w": 670,
						"h": 877
					},
					"frame": {
						"x": 0,
						"y": 0,
						"w": 670,
						"h": 877
					}
				}
			]
		},
		{
			"image": "data-18.jpg",
			"format": "RGB888",
			"size": {
				"w": 670,
				"h": 877
			},
			"scale": 1,
			"frames": [
				{
					"filename": "0018.png",
					"rotated": false,
					"trimmed": false,
					"sourceSize": {
						"w": 670,
						"h": 877
					},
					"spriteSourceSize": {
						"x": 0,
						"y": 0,
						"w": 670,
						"h": 877
					},
					"frame": {
						"x": 0,
						"y": 0,
						"w": 670,
						"h": 877
					}
				}
			]
		},
		{
			"image": "data-19.jpg",
			"format": "RGB888",
			"size": {
				"w": 670,
				"h": 877
			},
			"scale": 1,
			"frames": [
				{
					"filename": "0019.png",
					"rotated": false,
					"trimmed": false,
					"sourceSize": {
						"w": 670,
						"h": 877
					},
					"spriteSourceSize": {
						"x": 0,
						"y": 0,
						"w": 670,
						"h": 877
					},
					"frame": {
						"x": 0,
						"y": 0,
						"w": 670,
						"h": 877
					}
				}
			]
		},
		{
			"image": "data-20.jpg",
			"format": "RGB888",
			"size": {
				"w": 670,
				"h": 877
			},
			"scale": 1,
			"frames": [
				{
					"filename": "0020.png",
					"rotated": false,
					"trimmed": false,
					"sourceSize": {
						"w": 670,
						"h": 877
					},
					"spriteSourceSize": {
						"x": 0,
						"y": 0,
						"w": 670,
						"h": 877
					},
					"frame": {
						"x": 0,
						"y": 0,
						"w": 670,
						"h": 877
					}
				}
			]
		},
		{
			"image": "data-21.jpg",
			"format": "RGB888",
			"size": {
				"w": 670,
				"h": 877
			},
			"scale": 1,
			"frames": [
				{
					"filename": "0021.png",
					"rotated": false,
					"trimmed": false,
					"sourceSize": {
						"w": 670,
						"h": 877
					},
					"spriteSourceSize": {
						"x": 0,
						"y": 0,
						"w": 670,
						"h": 877
					},
					"frame": {
						"x": 0,
						"y": 0,
						"w": 670,
						"h": 877
					}
				}
			]
		},
		{
			"image": "data-22.jpg",
			"format": "RGB888",
			"size": {
				"w": 670,
				"h": 877
			},
			"scale": 1,
			"frames": [
				{
					"filename": "0022.png",
					"rotated": false,
					"trimmed": false,
					"sourceSize": {
						"w": 670,
						"h": 877
					},
					"spriteSourceSize": {
						"x": 0,
						"y": 0,
						"w": 670,
						"h": 877
					},
					"frame": {
						"x": 0,
						"y": 0,
						"w": 670,
						"h": 877
					}
				}
			]
		},
		{
			"image": "data-23.jpg",
			"format": "RGB888",
			"size": {
				"w": 670,
				"h": 877
			},
			"scale": 1,
			"frames": [
				{
					"filename": "0023.png",
					"rotated": false,
					"trimmed": false,
					"sourceSize": {
						"w": 670,
						"h": 877
					},
					"spriteSourceSize": {
						"x": 0,
						"y": 0,
						"w": 670,
						"h": 877
					},
					"frame": {
						"x": 0,
						"y": 0,
						"w": 670,
						"h": 877
					}
				}
			]
		},
		{
			"image": "data-24.jpg",
			"format": "RGB888",
			"size": {
				"w": 670,
				"h": 877
			},
			"scale": 1,
			"frames": [
				{
					"filename": "0024.png",
					"rotated": false,
					"trimmed": false,
					"sourceSize": {
						"w": 670,
						"h": 877
					},
					"spriteSourceSize": {
						"x": 0,
						"y": 0,
						"w": 670,
						"h": 877
					},
					"frame": {
						"x": 0,
						"y": 0,
						"w": 670,
						"h": 877
					}
				}
			]
		},
		{
			"image": "data-25.jpg",
			"format": "RGB888",
			"size": {
				"w": 670,
				"h": 877
			},
			"scale": 1,
			"frames": [
				{
					"filename": "0025.png",
					"rotated": false,
					"trimmed": false,
					"sourceSize": {
						"w": 670,
						"h": 877
					},
					"spriteSourceSize": {
						"x": 0,
						"y": 0,
						"w": 670,
						"h": 877
					},
					"frame": {
						"x": 0,
						"y": 0,
						"w": 670,
						"h": 877
					}
				}
			]
		},
		{
			"image": "data-26.jpg",
			"format": "RGB888",
			"size": {
				"w": 670,
				"h": 877
			},
			"scale": 1,
			"frames": [
				{
					"filename": "0026.png",
					"rotated": false,
					"trimmed": false,
					"sourceSize": {
						"w": 670,
						"h": 877
					},
					"spriteSourceSize": {
						"x": 0,
						"y": 0,
						"w": 670,
						"h": 877
					},
					"frame": {
						"x": 0,
						"y": 0,
						"w": 670,
						"h": 877
					}
				}
			]
		},
		{
			"image": "data-27.jpg",
			"format": "RGB888",
			"size": {
				"w": 670,
				"h": 877
			},
			"scale": 1,
			"frames": [
				{
					"filename": "0027.png",
					"rotated": false,
					"trimmed": false,
					"sourceSize": {
						"w": 670,
						"h": 877
					},
					"spriteSourceSize": {
						"x": 0,
						"y": 0,
						"w": 670,
						"h": 877
					},
					"frame": {
						"x": 0,
						"y": 0,
						"w": 670,
						"h": 877
					}
				}
			]
		},
		{
			"image": "data-28.jpg",
			"format": "RGB888",
			"size": {
				"w": 670,
				"h": 877
			},
			"scale": 1,
			"frames": [
				{
					"filename": "0028.png",
					"rotated": false,
					"trimmed": false,
					"sourceSize": {
						"w": 670,
						"h": 877
					},
					"spriteSourceSize": {
						"x": 0,
						"y": 0,
						"w": 670,
						"h": 877
					},
					"frame": {
						"x": 0,
						"y": 0,
						"w": 670,
						"h": 877
					}
				}
			]
		},
		{
			"image": "data-29.jpg",
			"format": "RGB888",
			"size": {
				"w": 670,
				"h": 877
			},
			"scale": 1,
			"frames": [
				{
					"filename": "0029.png",
					"rotated": false,
					"trimmed": false,
					"sourceSize": {
						"w": 670,
						"h": 877
					},
					"spriteSourceSize": {
						"x": 0,
						"y": 0,
						"w": 670,
						"h": 877
					},
					"frame": {
						"x": 0,
						"y": 0,
						"w": 670,
						"h": 877
					}
				}
			]
		},
		{
			"image": "data-30.jpg",
			"format": "RGB888",
			"size": {
				"w": 670,
				"h": 877
			},
			"scale": 1,
			"frames": [
				{
					"filename": "0030.png",
					"rotated": false,
					"trimmed": false,
					"sourceSize": {
						"w": 670,
						"h": 877
					},
					"spriteSourceSize": {
						"x": 0,
						"y": 0,
						"w": 670,
						"h": 877
					},
					"frame": {
						"x": 0,
						"y": 0,
						"w": 670,
						"h": 877
					}
				}
			]
		},
		{
			"image": "data-31.jpg",
			"format": "RGB888",
			"size": {
				"w": 670,
				"h": 877
			},
			"scale": 1,
			"frames": [
				{
					"filename": "0031.png",
					"rotated": false,
					"trimmed": false,
					"sourceSize": {
						"w": 670,
						"h": 877
					},
					"spriteSourceSize": {
						"x": 0,
						"y": 0,
						"w": 670,
						"h": 877
					},
					"frame": {
						"x": 0,
						"y": 0,
						"w": 670,
						"h": 877
					}
				}
			]
		},
		{
			"image": "data-32.jpg",
			"format": "RGB888",
			"size": {
				"w": 670,
				"h": 877
			},
			"scale": 1,
			"frames": [
				{
					"filename": "0032.png",
					"rotated": false,
					"trimmed": false,
					"sourceSize": {
						"w": 670,
						"h": 877
					},
					"spriteSourceSize": {
						"x": 0,
						"y": 0,
						"w": 670,
						"h": 877
					},
					"frame": {
						"x": 0,
						"y": 0,
						"w": 670,
						"h": 877
					}
				}
			]
		},
		{
			"image": "data-33.jpg",
			"format": "RGB888",
			"size": {
				"w": 670,
				"h": 877
			},
			"scale": 1,
			"frames": [
				{
					"filename": "0033.png",
					"rotated": false,
					"trimmed": false,
					"sourceSize": {
						"w": 670,
						"h": 877
					},
					"spriteSourceSize": {
						"x": 0,
						"y": 0,
						"w": 670,
						"h": 877
					},
					"frame": {
						"x": 0,
						"y": 0,
						"w": 670,
						"h": 877
					}
				}
			]
		},
		{
			"image": "data-34.jpg",
			"format": "RGB888",
			"size": {
				"w": 670,
				"h": 877
			},
			"scale": 1,
			"frames": [
				{
					"filename": "0034.png",
					"rotated": false,
					"trimmed": false,
					"sourceSize": {
						"w": 670,
						"h": 877
					},
					"spriteSourceSize": {
						"x": 0,
						"y": 0,
						"w": 670,
						"h": 877
					},
					"frame": {
						"x": 0,
						"y": 0,
						"w": 670,
						"h": 877
					}
				}
			]
		},
		{
			"image": "data-35.jpg",
			"format": "RGB888",
			"size": {
				"w": 670,
				"h": 877
			},
			"scale": 1,
			"frames": [
				{
					"filename": "0035.png",
					"rotated": false,
					"trimmed": false,
					"sourceSize": {
						"w": 670,
						"h": 877
					},
					"spriteSourceSize": {
						"x": 0,
						"y": 0,
						"w": 670,
						"h": 877
					},
					"frame": {
						"x": 0,
						"y": 0,
						"w": 670,
						"h": 877
					}
				}
			]
		},
		{
			"image": "data-36.jpg",
			"format": "RGB888",
			"size": {
				"w": 670,
				"h": 877
			},
			"scale": 1,
			"frames": [
				{
					"filename": "0036.png",
					"rotated": false,
					"trimmed": false,
					"sourceSize": {
						"w": 670,
						"h": 877
					},
					"spriteSourceSize": {
						"x": 0,
						"y": 0,
						"w": 670,
						"h": 877
					},
					"frame": {
						"x": 0,
						"y": 0,
						"w": 670,
						"h": 877
					}
				}
			]
		},
		{
			"image": "data-37.jpg",
			"format": "RGB888",
			"size": {
				"w": 670,
				"h": 877
			},
			"scale": 1,
			"frames": [
				{
					"filename": "0037.png",
					"rotated": false,
					"trimmed": false,
					"sourceSize": {
						"w": 670,
						"h": 877
					},
					"spriteSourceSize": {
						"x": 0,
						"y": 0,
						"w": 670,
						"h": 877
					},
					"frame": {
						"x": 0,
						"y": 0,
						"w": 670,
						"h": 877
					}
				}
			]
		}
	],
	"meta": {
		"app": "https://www.codeandweb.com/texturepacker",
		"version": "3.0",
		"smartupdate": "$TexturePacker:SmartUpdate:dbed0595033f09f14348d084b13a1920:3e868cd056c24ce5d3aebd1b24e1b795:264fe7b9f9632c208186a27720b4c256$"
	}
}
